Division,WeightClassKg,Place,Name,Team,BodyweightKg,Best3SquatKg,Best3BenchKg,Best3DeadliftKg,TotalKg,Equipment,Event,Sex
Boys,51.71,1,Miguel Hernandez,Emory Rains,50.17,161.03,90.72,154.22,405.97,Single-ply,SBD,M
Boys,51.71,2,Kais Cooper,Center,50.35,158.76,74.84,163.29,396.89,Single-ply,SBD,M
Boys,51.71,3,Justin Dowdy,Wills Point,48.72,142.88,79.38,149.69,371.95,Single-ply,SBD,M
Boys,51.71,4,Leo Rosales,Rusk,51.44,136.08,74.84,124.74,335.66,Single-ply,SBD,M
Boys,55.79,5,Ricardo Rodriguez,Athens,51.94,111.13,79.38,142.88,333.39,Single-ply,SBD,M
Boys,51.71,6,Tyler Ratanamonghala,Madisonville,49.99,131.54,61.23,136.08,328.85,Single-ply,SBD,M
Boys,51.71,7,Michael Smagghe,Fairfield,48.72,117.93,72.57,111.13,301.64,Single-ply,SBD,M
Boys,51.71,8,Dylan Simmons,Emory Rains,51.71,108.86,52.16,104.33,265.35,Single-ply,SBD,M
Boys,51.71,DQ,Daniel Palamaros,Center,51.53,115.67,,,,Single-ply,SBD,M
Boys,55.79,1,Jose Rodriguez #2,Athens,55.07,181.44,113.4,147.42,442.25,Single-ply,SBD,M
Boys,55.79,2,Brett Butler,Mabank,55.7,170.1,97.52,163.29,430.91,Single-ply,SBD,M
Boys,55.79,3,Wilberth Jimenez,Pittsburg,54.61,165.56,90.72,158.76,415.04,Single-ply,SBD,M
Boys,55.79,4,Mathew Solomon,Texarkana Liberty-Eylau,55.07,167.83,90.72,147.42,405.97,Single-ply,SBD,M
Boys,55.79,5,Ralph Bustos,Kaufman,54.79,165.56,83.91,151.95,401.43,Single-ply,SBD,M
Boys,55.79,6,Brandon Nettles,Texarkana Liberty-Eylau,55.25,151.95,104.33,136.08,392.36,Single-ply,SBD,M
Boys,59.87,7,Daniel Pena,Ferris,55.88,154.22,74.84,161.03,390.09,Single-ply,SBD,M
Boys,55.79,8,Mitchell Roberts,Texarkana Pleasant Grove,55.43,147.42,81.65,154.22,383.29,Single-ply,SBD,M
Boys,55.79,9,Jalleen Pickett,Madisonville,55.79,140.61,70.31,151.95,362.87,Single-ply,SBD,M
Boys,59.87,DQ,Naire Gaines,Paris,55.88,149.69,,,,Single-ply,SBD,M
Boys,67.13,1,Juan Mendez,Emory Rains,59.96,165.56,92.99,197.31,455.86,Single-ply,SBD,M
Boys,59.87,2,Gashia Moua,Quinlan Ford,59.51,167.83,90.72,190.51,449.06,Single-ply,SBD,M
Boys,59.87,3,Brooks Conlee,Bullard,59.33,151.95,81.65,195.04,428.64,Single-ply,SBD,M
Boys,59.87,4,Tabari Hill,Texarkana Liberty-Eylau,59.51,149.69,90.72,170.1,410.5,Single-ply,SBD,M
Boys,59.87,5,Matt Hernandez,Wills Point,59.24,156.49,81.65,170.1,408.23,Single-ply,SBD,M
Boys,59.87,6,Colby Green,Bullard,59.33,174.63,81.65,145.15,401.43,Single-ply,SBD,M
Boys,67.13,7,Nick Harris,Madisonville,60.1,147.42,86.18,163.29,396.89,Single-ply,SBD,M
Boys,67.13,DQ,Garrett Plumlee,Longview Spring Hill,60.1,,,,,Single-ply,SBD,M
Boys,67.13,DQ,Ismael Castillo,Madisonville,60.06,,,,,Single-ply,SBD,M
Boys,59.87,DQ,Chase Arras,Texarkana Liberty-Eylau,58.88,151.95,,,,Single-ply,SBD,M
Boys,67.13,1,Clemetra Bailey,Paris,67.04,201.85,138.35,226.8,566.99,Single-ply,SBD,M
Boys,67.13,2,Tino Elias,Mineola,66.5,210.92,97.52,208.65,517.1,Single-ply,SBD,M
Boys,67.13,3,Andres Sandoval,Ferris,66.04,181.44,129.27,190.51,501.22,Single-ply,SBD,M
Boys,67.13,4,Rod Howard,Texarkana Liberty-Eylau,64.86,165.56,111.13,188.24,464.93,Single-ply,SBD,M
Boys,67.13,5,Nick McKee,Longview Spring Hill,63.78,183.7,92.99,183.7,460.4,Single-ply,SBD,M
Boys,67.13,6,Christian Allison,Carthage,66.04,181.44,97.52,174.63,453.59,Single-ply,SBD,M
Boys,67.13,7,Bob Dickerson,Huntington,65.05,161.03,86.18,201.85,449.06,Single-ply,SBD,M
Boys,67.13,8,Colt Conway,Mabank,66.95,192.78,102.06,151.95,446.79,Single-ply,SBD,M
Boys,67.13,9,Levi Roberts,Atlanta,65.77,179.17,97.52,158.76,435.45,Single-ply,SBD,M
Boys,67.13,10,Devin Eggins,Fairfield,63.5,154.22,92.99,154.22,401.43,Single-ply,SBD,M
Boys,74.84,1,Kyle Kiser,Quinlan Ford,73.48,256.28,147.42,215.46,619.15,Single-ply,SBD,M
Boys,74.84,2,Dk Calloway,Carthage,70.85,231.33,122.47,231.33,585.13,Single-ply,SBD,M
Boys,74.84,3,Jesse Hudson #1,Emory Rains,72.12,233.6,113.4,235.87,582.87,Single-ply,SBD,M
Boys,74.84,4,James Wright #1,Wills Point,74.57,226.8,127.01,224.53,578.33,Single-ply,SBD,M
Boys,74.84,5,Garrett Stanley,Center,74.03,229.06,113.4,219.99,562.45,Single-ply,SBD,M
Boys,74.84,6,Alvin Battle,Atlanta,73.57,208.65,117.93,208.65,535.24,Single-ply,SBD,M
Boys,74.84,7,Houston Alexander,Bullard,73.66,197.31,129.27,204.12,530.7,Single-ply,SBD,M
Boys,74.84,8,Herold Carter,Texarkana Liberty-Eylau,73.12,195.04,127.01,190.51,512.56,Single-ply,SBD,M
Boys,74.84,9,Austin Skelton,Bullard,74.39,190.51,111.13,206.38,508.02,Single-ply,SBD,M
Boys,74.84,10,LaXavier Battee,Kaufman,73.57,197.31,104.33,190.51,492.15,Single-ply,SBD,M
Boys,82.1,1,Zach Holladay,Bullard,80.38,226.8,142.88,238.14,607.81,Single-ply,SBD,M
Boys,82.1,2,Joseph Clark,Tyler Chapel Hill,81.47,219.99,145.15,233.6,598.74,Single-ply,SBD,M
Boys,82.1,3,James Silkey,Quinlan Ford,81.01,226.8,145.15,224.53,596.47,Single-ply,SBD,M
Boys,82.1,4,Grant Russell,Emory Rains,80.92,195.04,120.2,256.28,571.53,Single-ply,SBD,M
Boys,82.1,5,Gannon Brown,Emory Rains,79.11,206.38,133.81,219.99,560.19,Single-ply,SBD,M
Boys,82.1,6,Aaron Johnson #13,Bullard,79.56,217.72,106.59,219.99,544.31,Single-ply,SBD,M
Boys,82.1,7,Christian Darter,Emory Rains,76.57,188.24,127.01,199.58,514.83,Single-ply,SBD,M
Boys,82.1,DQ,Austin Musser,Mineola,80.2,247.21,,,,Single-ply,SBD,M
Boys,82.1,DQ,Kj Garrett,Center,79.29,,,,,Single-ply,SBD,M
Boys,82.1,DQ,Chris Hancock,Tyler Chapel Hill,80.74,,,,,Single-ply,SBD,M
Boys,89.81,1,Kiounis Williams,Center,86.45,242.67,133.81,258.55,635.03,Single-ply,SBD,M
Boys,89.81,2,Mathew Sellers,Texarkana Liberty-Eylau,89.18,260.82,136.08,213.19,610.08,Single-ply,SBD,M
Boys,89.81,3,Kevin Jones #7,Rusk,85.64,240.4,149.69,210.92,601.01,Single-ply,SBD,M
Boys,89.81,4,Gilberto Jimenez,Bullard,88.63,226.8,142.88,226.8,596.47,Single-ply,SBD,M
Boys,89.81,5,Collin Craytor,Texarkana Pleasant Grove,88.72,231.33,131.54,229.06,591.94,Single-ply,SBD,M
Boys,89.81,6,Marcos Garza,Mabank,88.63,226.8,142.88,219.99,589.67,Single-ply,SBD,M
Boys,89.81,7,Chase McDonald,Quinlan Ford,89.63,238.14,129.27,190.51,557.92,Single-ply,SBD,M
Boys,89.81,8,Marquis Gill,Paris,88.99,213.19,117.93,215.46,546.58,Single-ply,SBD,M
Boys,89.81,9,Aaron Chitwood,Brownsboro,84.37,226.8,104.33,213.19,544.31,Single-ply,SBD,M
Boys,89.81,10,Jonathan Dunson,Kaufman,88.45,199.58,136.08,195.04,530.7,Single-ply,SBD,M
Boys,99.79,1,Cody Sell,Fairfield,99.34,256.28,161.03,249.48,666.78,Single-ply,SBD,M
Boys,99.79,2,William Wayne,Texarkana Liberty-Eylau,98.97,242.67,149.69,222.26,614.62,Single-ply,SBD,M
Boys,99.79,3,Neco Smith,Texarkana Pleasant Grove,96.43,244.94,142.88,217.72,605.55,Single-ply,SBD,M
Boys,99.79,4,Gonzalo Arreguin,Tyler Chapel Hill,94.89,208.65,147.42,226.8,582.87,Single-ply,SBD,M
Boys,99.79,5,Derrick Thomas,Center,98.7,204.12,124.74,249.48,578.33,Single-ply,SBD,M
Boys,99.79,6,Deshanti Holloway,Atlanta,94.17,226.8,102.06,240.4,569.26,Single-ply,SBD,M
Boys,99.79,7,Cole Davis,Atlanta,95.62,204.12,124.74,213.19,542.04,Single-ply,SBD,M
Boys,99.79,8,Tookie Neal,Atlanta,92.9,208.65,106.59,219.99,535.24,Single-ply,SBD,M
Boys,99.79,9,Geoffrey Smith,Paris,94.35,190.51,106.59,219.99,517.1,Single-ply,SBD,M
Boys,99.79,DQ,Etheridge Brooks,Madisonville,98.97,,,,,Single-ply,SBD,M
Boys,109.77,1,Morocco Arnold,Texarkana Liberty-Eylau,107.95,272.16,158.76,290.3,721.21,Single-ply,SBD,M
Boys,109.77,2,Jorge Rosas,Madisonville,104.33,240.4,131.54,231.33,603.28,Single-ply,SBD,M
Boys,109.77,3,DeVincent Hoyt,Center,104.51,238.14,142.88,210.92,591.94,Single-ply,SBD,M
Boys,109.77,4,Codey Huggins,Wills Point,107.23,249.48,111.13,229.06,589.67,Single-ply,SBD,M
Boys,109.77,5,Tyler Trammel,Paris North Lamar,106.59,235.87,151.95,197.31,585.13,Single-ply,SBD,M
Boys,109.77,6,Zach Swearingen,Rusk,108.5,242.67,120.2,208.65,571.53,Single-ply,SBD,M
Boys,109.77,7,Johnt'A Maxey,Palestine,101.06,226.8,136.08,188.24,551.11,Single-ply,SBD,M
Boys,109.77,8,Caleb Hallford,Bullard,102.97,188.24,138.35,190.51,517.1,Single-ply,SBD,M
Boys,124.74,1,Aaron Liker,Center,110.86,294.84,208.65,267.62,771.11,Single-ply,SBD,M
Boys,124.74,2,Dillen Kilpatrick,Fairfield,110.4,272.16,181.44,208.65,662.24,Single-ply,SBD,M
Boys,124.74,3,Joey Lenard,Atlanta,115.3,256.28,145.15,240.4,641.83,Single-ply,SBD,M
Boys,124.74,4,Drew Davis,Texarkana Pleasant Grove,117.66,249.48,154.22,226.8,630.49,Single-ply,SBD,M
Boys,124.74,5,David Allen,Quinlan Ford,116.12,244.94,120.2,231.33,596.47,Single-ply,SBD,M
Boys,124.74,6,Jose Valejo,Center,118.3,229.06,142.88,217.72,589.67,Single-ply,SBD,M
Boys,124.74,7,Patrick Cross,Palestine,117.39,231.33,124.74,215.46,571.53,Single-ply,SBD,M
Boys,124.74,8,Brian Gutierrez,Athens,117.3,231.33,142.88,185.97,560.19,Single-ply,SBD,M
Boys,124.74,9,Tilar Holloway,Pittsburg,117.93,217.72,145.15,188.24,551.11,Single-ply,SBD,M
Boys,124.74,DQ,Daniel Gilmore,Pittsburg,111.67,213.19,,,,Single-ply,SBD,M
Boys,124.74+,1,Chris Paul,Texarkana Liberty-Eylau,126.28,276.69,163.29,240.4,680.39,Single-ply,SBD,M
Boys,124.74+,2,John Arellano,Athens,129.18,272.16,149.69,249.48,671.32,Single-ply,SBD,M
Boys,124.74+,3,Andre McKissick,Crandall,138.44,240.4,154.22,249.48,644.1,Single-ply,SBD,M
Boys,124.74+,4,Jared Lincoln,Atlanta,126.73,222.26,149.69,233.6,605.55,Single-ply,SBD,M
Boys,124.74+,5,Kason Willis,Atlanta,125.92,244.94,136.08,222.26,603.28,Single-ply,SBD,M
Boys,124.74+,6,Jackie Berry,Paris North Lamar,129.46,231.33,117.93,235.87,585.13,Single-ply,SBD,M
Boys,124.74+,7,Jesse Luna,Wills Point,148.42,249.48,111.13,201.85,562.45,Single-ply,SBD,M
Boys,124.74+,DQ,Tristen Fritch,Brownsboro,164.65,,,,,Single-ply,SBD,M
Boys,124.74+,DQ,Juan Gomez,Brownsboro,128.37,265.35,,,,Single-ply,SBD,M
Boys,124.74+,DQ,Jordan LaBrie,Texarkana Pleasant Grove,130.45,235.87,140.61,,,Single-ply,SBD,M
