Division,WeightClassKg,Place,Name,Team,BodyweightKg,Best3SquatKg,Best3BenchKg,Best3DeadliftKg,TotalKg,Equipment,Event,Sex,BirthDate
Boys,51.71,1,Fabian Garcia,Edinburg Idea College Prep,51.35,165.56,111.13,163.29,439.98,Single-ply,SBD,M,
Boys,51.71,2,Dashel Burrows,Sharyland Pioneer,45.45,86.18,61.23,104.33,251.74,Single-ply,SBD,M,
Boys,51.71,DQ,Tyler Martinez #2,Edcouch-Elsa,51.71,131.54,,,,Single-ply,SBD,M,
Boys,55.79,1,Angel Rivera,McAllen Memorial,55.52,149.69,102.06,149.69,401.43,Single-ply,SBD,M,
Boys,55.79,2,Zuriell Garcia,Pharr Valley View,55.79,129.27,97.52,154.22,381.02,Single-ply,SBD,M,
Boys,55.79,3,Matthew Sanchez,Mission Veterans Memorial,55.7,138.35,74.84,133.81,347,Single-ply,SBD,M,
Boys,55.79,4,Mario Gutierrez,Mission Veterans Memorial,55.61,104.33,68.04,117.93,290.3,Single-ply,SBD,M,
Boys,55.79,DQ,Luis Garcia #9,Sharyland Pioneer,55.7,167.83,90.72,,,Single-ply,SBD,M,
Boys,59.87,1,Victor Vazquez,Sharyland Pioneer,58.69,131.54,70.31,129.27,331.12,Single-ply,SBD,M,
Boys,59.87,2,Marco Gutierrez,Sharyland Pioneer,59.83,90.72,56.7,99.79,247.21,Single-ply,SBD,M,
Boys,59.87,DQ,Isaias Salinas,McAllen Memorial,58.51,,,,,Single-ply,SBD,M,
Boys,67.13,1,Jonathan Castillo,Edcouch-Elsa,66.95,226.8,127.01,229.06,582.87,Single-ply,SBD,M,
Boys,67.13,2,Brandon Rangel,Los Fresnos,65.86,170.1,106.59,129.27,405.97,Single-ply,SBD,M,
Boys,67.13,3,Oscar Garza,Edinburg Idea College Prep,66.86,142.88,104.33,149.69,396.89,Single-ply,SBD,M,
Boys,67.13,4,Thomas Morina,Sharyland Pioneer,63.5,136.08,72.57,136.08,344.73,Single-ply,SBD,M,
Boys,67.13,DQ,Pablo López,Mission Veterans Memorial,66.81,,,,,Single-ply,SBD,M,
Boys,67.13,DQ,Roman Garcia,La Joya Palmview,64.95,122.47,,,,Single-ply,SBD,M,
Boys,67.13,DQ,Gael Corona-Gonzalez,La Joya Palmview,64.41,,,,,Single-ply,SBD,M,
Boys,67.13,DQ,Giovani Mireles,Mercedes,64.86,147.42,90.72,,,Single-ply,SBD,M,
Boys,74.84,1,Rolando Saenz,Mission Sharyland,74.21,233.6,129.27,213.19,576.06,Single-ply,SBD,M,
Boys,74.84,2,Josue Ceron,Los Fresnos,74.39,204.12,133.81,195.04,532.97,Single-ply,SBD,M,
Boys,74.84,3,Diego Valdez #1,Edcouch-Elsa,74.03,188.24,129.27,213.19,530.7,Single-ply,SBD,M,
Boys,74.84,4,Alan Gonzalez,Mission Sharyland,73.3,201.85,129.27,197.31,528.44,Single-ply,SBD,M,
Boys,74.84,5,Antonio Anzaldua,Mercedes,73.57,192.78,138.35,183.7,514.83,Single-ply,SBD,M,
Boys,74.84,6,Alonso Bravo,Mission Veterans Memorial,73.62,195.04,129.27,176.9,501.22,Single-ply,SBD,M,
Boys,74.84,7,Emiliano De La Fuente,Mission Sharyland,73.48,158.76,97.52,165.56,421.84,Single-ply,SBD,M,
Boys,74.84,8,Enrique Ordaz,Mission Veterans Memorial,73.53,142.88,88.45,151.95,383.29,Single-ply,SBD,M,
Boys,74.84,DQ,Jon Terrazos,Santa Rosa,73.66,,,,,Single-ply,SBD,M,
Boys,82.1,1,Rosbel Zamarripa,La Joya Palmview,80.38,226.8,142.88,217.72,587.4,Single-ply,SBD,M,
Boys,82.1,2,Miguel Jimenez,Mercedes,81.37,226.8,120.2,224.53,571.53,Single-ply,SBD,M,
Boys,82.1,3,Angel Cantu,La Joya Palmview,80.83,226.8,136.08,183.7,546.58,Single-ply,SBD,M,
Boys,82.1,4,Jude Jaime,Mission,78.02,215.46,133.81,195.04,544.31,Single-ply,SBD,M,
Boys,82.1,5,Diego Mercado,Mission Veterans Memorial,79.51,174.63,95.25,167.83,437.72,Single-ply,SBD,M,
Boys,82.1,DQ,Victor Guerrero,Edcouch-Elsa,81.65,,,,,Single-ply,SBD,M,
Boys,89.81,1,Mauricio Galindo,Mission Sharyland,89.81,251.74,147.42,201.85,601.01,Single-ply,SBD,M,
Boys,89.81,2,Sean Marmolejo,Edcouch-Elsa,89.81,208.65,131.54,183.7,523.9,Single-ply,SBD,M,
Boys,89.81,3,Juan Fuentes,McAllen Memorial,87.82,195.04,127.01,188.24,510.29,Single-ply,SBD,M,
Boys,89.81,4,Eduardo Herrera,La Joya Palmview,87,183.7,113.4,181.44,478.54,Single-ply,SBD,M,
Boys,89.81,5,Jesús Flores,Pharr Valley View,86.82,136.08,99.79,142.88,378.75,Single-ply,SBD,M,
Boys,89.81,DQ,Jordon Rock,Roma,89.45,219.99,117.93,,,Single-ply,SBD,M,
Boys,89.81,DQ,Anthony Del Angel,Sharyland Pioneer,86.09,,,,,Single-ply,SBD,M,
Boys,99.79,1,Francisco Castillo,Mission Veterans Memorial,99.2,231.33,156.49,210.92,598.74,Single-ply,SBD,M,
Boys,99.79,2,Isaiah Baker,Mission Veterans Memorial,98.7,224.53,131.54,229.06,585.13,Single-ply,SBD,M,
Boys,99.79,3,Nico Herrera,Edcouch-Elsa,99.16,233.6,140.61,208.65,582.87,Single-ply,SBD,M,
Boys,99.79,4,Damien Barrera,McAllen Memorial,97.34,224.53,147.42,204.12,576.06,Single-ply,SBD,M,
Boys,99.79,5,Diego Trevino,Mission Sharyland,92.26,181.44,115.67,195.04,492.15,Single-ply,SBD,M,
Boys,99.79,6,Israel Nicanor,Sharyland Pioneer,99.7,181.44,99.79,195.04,476.27,Single-ply,SBD,M,
Boys,99.79,7,Joshua Lang,McAllen Memorial,97.61,167.83,102.06,142.88,412.77,Single-ply,SBD,M,
Boys,99.79,8,Nathanael Agueros,Mercedes,91.81,151.95,92.99,13.61,258.55,Single-ply,SBD,M,
Boys,99.79,DQ,Daniel Gonzalez,Mission Sharyland,94.53,,,,,Single-ply,SBD,M,
Boys,99.79,DQ,Derek Vera,Edcouch-Elsa,99.79,208.65,,,,Single-ply,SBD,M,
Boys,109.77,1,Justyn Esquivel,Edcouch-Elsa,107.32,267.62,170.1,226.8,664.51,Single-ply,SBD,M,
Boys,109.77,2,Jose Lopez,Roma,102.78,272.16,140.61,244.94,657.71,Single-ply,SBD,M,
Boys,109.77,3,Edgar Bautista,Sharyland Pioneer,105.6,242.67,142.88,183.7,569.26,Single-ply,SBD,M,
Boys,109.77,4,Jj Johnson,McAllen Memorial,104.51,231.33,127.01,181.44,539.77,Single-ply,SBD,M,
Boys,109.77,5,Caleb Garza,Santa Rosa,104.33,183.7,102.06,156.49,442.25,Single-ply,SBD,M,
Boys,109.77,6,Camilo Galaviz,Sharyland Pioneer,104.96,167.83,102.06,172.37,442.25,Single-ply,SBD,M,
Boys,124.74,1,Alex Mendiola,McAllen Memorial,124.51,258.55,188.24,260.82,707.6,Single-ply,SBD,M,
Boys,124.74,2,Justin Sandoval,Edcouch-Elsa,123.56,272.16,136.08,226.8,635.03,Single-ply,SBD,M,
Boys,124.74,3,Brandom Alaniz,Mission Sharyland,116.75,224.53,117.93,197.31,539.77,Single-ply,SBD,M,
Boys,124.74,4,Hector Naverez,Pharr Valley View,117.75,192.78,102.06,185.97,480.81,Single-ply,SBD,M,
Boys,124.74,DQ,Ethan Hinojosa,Sharyland Pioneer,121.47,158.76,,,,Single-ply,SBD,M,
Boys,139.71,1,Thomas Domian,McAllen Memorial,127.1,254.01,179.17,217.72,650.91,Single-ply,SBD,M,
Boys,139.71,2,Nathaniel Villegas,Mission Veterans Memorial,136.08,204.12,122.47,163.29,489.88,Single-ply,SBD,M,
Boys,139.71,3,Jerry Rios,Santa Rosa,133.17,192.78,86.18,172.37,451.32,Single-ply,SBD,M,
Boys,139.71+,1,Alejandro Avila,McAllen Memorial,153.4,240.4,151.95,226.8,619.15,Single-ply,SBD,M,
Boys,139.71+,2,Juan Barrera,Edcouch-Elsa,158.3,263.08,142.88,197.31,603.28,Single-ply,SBD,M,
