Division,WeightClassKg,Place,Name,Team,BodyweightKg,Best3SquatKg,Best3BenchKg,Best3DeadliftKg,TotalKg,Equipment,Event,Sex
Boys,55.79,1,Randy Salinas,Bangs,51.75,127.01,74.84,154.22,356.07,Single-ply,SBD,M
Boys,51.71,2,Jason Ayers,Lampasas,50.89,133.81,63.5,133.81,331.12,Single-ply,SBD,M
Boys,51.71,3,Luke Argo,Lampasas,51.35,136.08,58.97,120.2,315.25,Single-ply,SBD,M
Boys,55.79,4,Derrick McBee,Brady,51.94,106.59,47.63,138.35,292.57,Single-ply,SBD,M
Boys,51.71,5,Dalton Dewveall,Llano,48.08,106.59,58.97,117.93,283.5,Single-ply,SBD,M
Boys,55.79,6,Aaron Rivera,San Angelo Lake View,51.89,95.25,54.43,115.67,265.35,Single-ply,SBD,M
Boys,55.79,7,Josh Garcia #1,San Angelo Central,51.89,83.91,52.16,106.59,242.67,Single-ply,SBD,M
Boys,51.71,8,Chance Goodgoin,Brownwood,51.07,88.45,45.36,104.33,238.14,Single-ply,SBD,M
Boys,51.71,9,Payton Johnson,San Saba,46.45,90.72,43.09,92.99,226.8,Single-ply,SBD,M
Boys,51.71,DQ,Antonio Barron,San Angelo Lake View,41.37,54.43,,,,Single-ply,SBD,M
Boys,55.79,1,Chris Ramirez,Lampasas,55.38,138.35,74.84,151.95,365.14,Single-ply,SBD,M
Boys,55.79,2,Kevin Buitron,Sonora,55.79,122.47,81.65,158.76,362.87,Single-ply,SBD,M
Boys,55.79,3,Nimo Vega,San Saba,53.52,122.47,77.11,158.76,358.34,Single-ply,SBD,M
Boys,55.79,4,Quenton Winborn,Early,55.43,145.15,70.31,131.54,347,Single-ply,SBD,M
Boys,55.79,5,Brandon Lee,San Angelo Lake View,55.79,131.54,65.77,140.61,337.93,Single-ply,SBD,M
Boys,55.79,6,Josh Chorenzink,Hamilton,53.89,124.74,83.91,113.4,322.05,Single-ply,SBD,M
Boys,55.79,7,Nike Garcia,Early,54.48,124.74,68.04,127.01,319.78,Single-ply,SBD,M
Boys,55.79,8,Preston Garcia,Early,54.88,124.74,65.77,129.27,319.78,Single-ply,SBD,M
Boys,55.79,9,Gus Barrera,Sonora,54.61,99.79,63.5,127.01,290.3,Single-ply,SBD,M
Boys,55.79,10,Jarron Kirkland,Brady,54.43,90.72,49.9,113.4,254.01,Single-ply,SBD,M
Boys,59.87,1,Dominique Dalbert,San Angelo Central,57.61,151.95,81.65,176.9,410.5,Single-ply,SBD,M
Boys,59.87,2,Dominic Garcia,Burnet,58.56,138.35,90.72,156.49,385.55,Single-ply,SBD,M
Boys,59.87,3,Eric Garcia,Sonora,58.24,136.08,81.65,149.69,367.41,Single-ply,SBD,M
Boys,59.87,4,Dorian Jimenez,Brady,58.97,136.08,68.04,163.29,367.41,Single-ply,SBD,M
Boys,59.87,5,Devon Keese,Brady,59.69,147.42,81.65,133.81,362.87,Single-ply,SBD,M
Boys,59.87,6,Meeko Gonzalez,Sonora,59.47,127.01,83.91,145.15,356.07,Single-ply,SBD,M
Boys,59.87,7,Daniel Camacho,Marble Falls,59.51,117.93,77.11,142.88,337.93,Single-ply,SBD,M
Boys,59.87,8,Bryce Sims,Hamilton,59.51,111.13,70.31,122.47,303.91,Single-ply,SBD,M
Boys,67.13,9,Rowdy Carlson,Brady,59.96,97.52,61.23,111.13,269.89,Single-ply,SBD,M
Boys,59.87,10,Devynn Mejia,San Angelo Grape Creek,57.97,102.06,47.63,108.86,258.55,Single-ply,SBD,M
Boys,59.87,DQ,Lucas Diaz,Santa Anna,58.06,140.61,72.57,,,Single-ply,SBD,M
Boys,59.87,DQ,Jose Constancia,Early,59.69,102.06,43.09,,,Single-ply,SBD,M
Boys,67.13,1,Ryan Hurst,San Angelo Grape Creek,66.22,217.72,99.79,226.8,544.31,Single-ply,SBD,M
Boys,67.13,2,Zach Perez,Ballinger,66.59,190.51,127.01,217.72,535.24,Single-ply,SBD,M
Boys,67.13,3,Michael Vargas,Ozona,65.32,201.85,108.86,190.51,501.22,Single-ply,SBD,M
Boys,67.13,4,Dakota Murray,Brady,67.13,204.12,88.45,206.38,498.95,Single-ply,SBD,M
Boys,67.13,5,Corey Crowell,Bangs,66.77,179.17,111.13,172.37,462.66,Single-ply,SBD,M
Boys,67.13,6,John Jurado,Ozona,64.86,181.44,88.45,185.97,455.86,Single-ply,SBD,M
Boys,67.13,7,Knijan Bell-Williams,Lampasas,66.28,163.29,97.52,181.44,442.25,Single-ply,SBD,M
Boys,67.13,8,Justin Medrono,Brady,65.32,149.69,117.93,165.56,433.18,Single-ply,SBD,M
Boys,67.13,9,Edson DeHoyas,San Angelo Central,62.14,158.76,95.25,176.9,430.91,Single-ply,SBD,M
Boys,67.13,10,Sean Schaefer,Ballinger,66.72,167.83,92.99,170.1,430.91,Single-ply,SBD,M
Boys,67.13,11,Cosme Diaz,San Saba,66.77,165.56,86.18,176.9,428.64,Single-ply,SBD,M
Boys,67.13,12,Robert Sauceda,San Angelo Central,65.41,161.03,95.25,167.83,424.11,Single-ply,SBD,M
Boys,67.13,13,Christian Rodriquez,Llano,66.68,163.29,102.06,156.49,421.84,Single-ply,SBD,M
Boys,67.13,14,Ryan Kennedy #1,Ozona,62.6,156.49,79.38,174.63,410.5,Single-ply,SBD,M
Boys,67.13,15,Trevor Penny,Llano,62.14,154.22,81.65,156.49,392.36,Single-ply,SBD,M
Boys,67.13,16,Clayten Crabb,Ballinger,66.27,136.08,99.79,156.49,392.36,Single-ply,SBD,M
Boys,67.13,17,Stephen Seely,San Angelo Lake View,61.14,131.54,79.38,170.1,381.02,Single-ply,SBD,M
Boys,67.13,18,Will Smith #4,Lampasas,66.77,142.88,77.11,158.76,378.75,Single-ply,SBD,M
Boys,67.13,19,Mark DeLeon,Brady,60.51,142.88,90.72,142.88,376.48,Single-ply,SBD,M
Boys,67.13,20,Brian Denison,Hamilton,65.5,124.74,77.11,136.08,337.93,Single-ply,SBD,M
Boys,67.13,21,Leighton Delgado,San Angelo Lake View,61.28,111.13,65.77,136.08,312.98,Single-ply,SBD,M
Boys,67.13,22,Jacob Vasquez #6,Marble Falls,61.23,106.59,54.43,108.86,269.89,Single-ply,SBD,M
Boys,67.13,DQ,Aaron Kelly,San Angelo Grape Creek,60.87,,,,,Single-ply,SBD,M
Boys,67.13,DQ,Stephen Medrano,San Angelo Grape Creek,67.13,,,,,Single-ply,SBD,M
Boys,67.13,DQ,Dusty Strictland,Christoval,66.22,127.01,,,,Single-ply,SBD,M
Boys,74.84,1,Angel Moreno,San Angelo Lake View,71.21,219.99,111.13,199.58,530.7,Single-ply,SBD,M
Boys,74.84,2,Kevin Reed,Marble Falls,74.48,197.31,127.01,204.12,528.44,Single-ply,SBD,M
Boys,74.84,3,Willie Collins,Ballinger,70.31,199.58,117.93,181.44,498.95,Single-ply,SBD,M
Boys,74.84,4,Morgan Lytle,Christoval,73.48,188.24,104.33,190.51,483.08,Single-ply,SBD,M
Boys,74.84,5,Avery Gary,Lampasas,70.36,170.1,108.86,195.04,474,Single-ply,SBD,M
Boys,82.1,6,Brett Castillo,Sonora,74.93,181.44,90.72,195.04,467.2,Single-ply,SBD,M
Boys,74.84,7,Logan Mendoza,Santa Anna,73.07,158.76,97.52,181.44,437.72,Single-ply,SBD,M
Boys,74.84,8,Brodee Johnson,Burnet,74.43,167.83,104.33,165.56,437.72,Single-ply,SBD,M
Boys,74.84,9,Travis Dilworth,Marble Falls,70.22,156.49,95.25,181.44,433.18,Single-ply,SBD,M
Boys,74.84,10,Charlie Tongate,Early,69.85,156.49,74.84,190.51,421.84,Single-ply,SBD,M
Boys,74.84,11,Michael Chavez,Sonora,72.12,165.56,83.91,165.56,415.04,Single-ply,SBD,M
Boys,74.84,12,Kevin O'Dell,San Angelo Grape Creek,74.03,142.88,92.99,170.1,405.97,Single-ply,SBD,M
Boys,74.84,13,Adam Multer,Ballinger,68.49,158.76,79.38,163.29,401.43,Single-ply,SBD,M
Boys,74.84,14,Gary Flores,Brady,70.49,151.95,83.91,158.76,394.63,Single-ply,SBD,M
Boys,74.84,15,Jonathan Gutierrez,Sonora,70.58,149.69,83.91,149.69,383.29,Single-ply,SBD,M
Boys,74.84,16,Sam Jacobs,Christoval,70.4,136.08,68.04,154.22,358.34,Single-ply,SBD,M
Boys,74.84,17,Garrett Doyal,Brownwood,74.39,129.27,79.38,136.08,344.73,Single-ply,SBD,M
Boys,82.1,18,Cole Covey,San Angelo Grape Creek,75.07,127.01,63.5,129.27,319.78,Single-ply,SBD,M
Boys,74.84,19,Trent Cofresi,Bangs,73.12,106.59,74.84,127.01,308.44,Single-ply,SBD,M
Boys,74.84,DQ,Joel Camacho,Marble Falls,68.99,183.7,,,,Single-ply,SBD,M
Boys,74.84,DQ,Luke Parker,Christoval,70.22,179.17,,,,Single-ply,SBD,M
Boys,82.1,DQ,Felix Guerra,Sonora,75.02,136.08,86.18,,,Single-ply,SBD,M
Boys,74.84,DQ,Jose Armendariz,San Angelo Grape Creek,71.4,190.51,,,,Single-ply,SBD,M
Boys,82.1,1,Devon Hoelscher,Ballinger,78.93,210.92,147.42,208.65,566.99,Single-ply,SBD,M
Boys,82.1,2,Jake Gravell,Bangs,76.84,199.58,120.2,190.51,510.29,Single-ply,SBD,M
Boys,89.81,3,Dylan Rosales,San Saba,82.28,181.44,106.59,213.19,501.22,Single-ply,SBD,M
Boys,82.1,4,Cody Morrison,Early,79.83,204.12,79.38,204.12,487.61,Single-ply,SBD,M
Boys,82.1,5,Jerry Trejo,Brady,76.66,165.56,108.86,204.12,478.54,Single-ply,SBD,M
Boys,82.1,6,Hunter Wilkinson,Lampasas,75.75,172.37,102.06,188.24,462.66,Single-ply,SBD,M
Boys,82.1,7,Joaquin Rivero,San Angelo Central,77.47,174.63,102.06,156.49,433.18,Single-ply,SBD,M
Boys,82.1,8,Steven Kirk,Ballinger,75.3,151.95,102.06,163.29,417.3,Single-ply,SBD,M
Boys,82.1,9,Josh Nash,Brownwood,76.75,154.22,90.72,145.15,390.09,Single-ply,SBD,M
Boys,82.1,10,Mackey Gibson,Brownwood,77.38,147.42,90.72,149.69,387.82,Single-ply,SBD,M
Boys,82.1,11,Collin Mayne,Llano,80.74,113.4,95.25,113.4,322.05,Single-ply,SBD,M
Boys,82.1,DQ,Cody Jandreau,Lampasas,81.65,210.92,,,,Single-ply,SBD,M
Boys,82.1,DQ,Rikkie Ruschenberg,San Angelo Grape Creek,79.65,,,,,Single-ply,SBD,M
Boys,82.1,DQ,Caleb Hudson,San Angelo Lake View,77.84,,,,,Single-ply,SBD,M
Boys,82.1,DQ,Skylor Postgate,Marble Falls,80.92,136.08,79.38,,,Single-ply,SBD,M
Boys,82.1,DQ,Ben Holden,Ballinger,80.74,151.95,108.86,,,Single-ply,SBD,M
Boys,82.1,DQ,Isreal Torres,Brady,79.47,,,,,Single-ply,SBD,M
Boys,82.1,DQ,Michael DeFiore,Brady,76.02,120.2,,,,Single-ply,SBD,M
Boys,82.1,DQ,Ismael Ramirez,San Saba,80.74,165.56,106.59,176.9,,Single-ply,SBD,M
Boys,89.81,1,Jamie Faust,Hamilton,85.09,226.8,104.33,192.78,523.9,Single-ply,SBD,M
Boys,89.81,2,John Cuellar,Ballinger,88.04,215.46,102.06,195.04,512.56,Single-ply,SBD,M
Boys,89.81,3,Mack Monsen,Brownwood,88.09,192.78,115.67,181.44,489.88,Single-ply,SBD,M
Boys,89.81,4,Jared McHazlett,Burnet,87.14,172.37,97.52,199.58,469.47,Single-ply,SBD,M
Boys,89.81,5,Hunter Thomas,Burnet,86.18,183.7,99.79,165.56,449.06,Single-ply,SBD,M
Boys,89.81,6,Robert Reeves,Brady,84.28,149.69,108.86,185.97,444.52,Single-ply,SBD,M
Boys,89.81,7,Cullen Ferrill,Burnet,85.55,181.44,88.45,172.37,442.25,Single-ply,SBD,M
Boys,89.81,8,Albert Elizondo,Early,83.46,190.51,97.52,149.69,437.72,Single-ply,SBD,M
Boys,89.81,9,Daniel Lombrano,Ozona,84.37,172.37,102.06,161.03,435.45,Single-ply,SBD,M
Boys,89.81,10,Topher McGehee,Lampasas,88.45,158.76,102.06,170.1,430.91,Single-ply,SBD,M
Boys,89.81,11,Cj Camarrillo,Brady,85.73,156.49,104.33,158.76,419.57,Single-ply,SBD,M
Boys,89.81,12,Sergio Torres #3,Brady,86.18,158.76,102.06,154.22,415.04,Single-ply,SBD,M
Boys,89.81,13,Daniel Calderon,San Saba,85.28,156.49,92.99,163.29,412.77,Single-ply,SBD,M
Boys,89.81,14,Isaiah Regeon,Brady,87.09,158.76,88.45,147.42,394.63,Single-ply,SBD,M
Boys,89.81,15,Christian Guevara,Hamilton,84.19,158.76,83.91,149.69,392.36,Single-ply,SBD,M
Boys,89.81,16,Miguel Palacio,Lampasas,86.23,158.76,81.65,149.69,390.09,Single-ply,SBD,M
Boys,89.81,17,Sergio Castillo,Brownwood,84.55,145.15,72.57,127.01,344.73,Single-ply,SBD,M
Boys,89.81,18,Erwin Rodas,Brady,85.28,131.54,74.84,136.08,342.46,Single-ply,SBD,M
Boys,89.81,19,Ramon Lara,Brownwood,84.37,115.67,79.38,113.4,308.44,Single-ply,SBD,M
Boys,89.81,20,Jeremy Munoz,Ozona,82.55,111.13,61.23,113.4,285.76,Single-ply,SBD,M
Boys,89.81,DQ,Caleb Penny,Llano,88.45,,,,,Single-ply,SBD,M
Boys,89.81,DQ,Justin Price,Brownwood,88,136.08,,,,Single-ply,SBD,M
Boys,89.81,DQ,Aaron Johns,Burnet,88.36,215.46,,,,Single-ply,SBD,M
Boys,89.81,DQ,Josh Beckwith,Bangs,89.27,242.67,,,,Single-ply,SBD,M
Boys,89.81,DQ,Colton Fontenot,San Angelo Lake View,83.64,129.27,,,,Single-ply,SBD,M
Boys,89.81,DQ,John Allen,Early,89.81,147.42,63.5,,,Single-ply,SBD,M
Boys,99.79,DQ,Rigoberto Rodriguez,Ozona,90.04,188.24,97.52,,,Single-ply,SBD,M
Boys,99.79,1,Auggie Woodruff,Ballinger,91.63,272.16,165.56,226.8,664.51,Single-ply,SBD,M
Boys,99.79,2,Haziel Damian,Ozona,96.16,242.67,111.13,219.99,573.79,Single-ply,SBD,M
Boys,99.79,3,Jaylen Bocknite,Brownwood,96.25,210.92,122.47,226.8,560.19,Single-ply,SBD,M
Boys,99.79,4,Justin Hoskinson,Bangs,93.03,235.87,115.67,199.58,551.11,Single-ply,SBD,M
Boys,99.79,5,Brian Rogers,San Saba,98.25,208.65,129.27,213.19,551.11,Single-ply,SBD,M
Boys,99.79,6,DeVante Stredic,Brownwood,90.81,215.46,115.67,208.65,539.77,Single-ply,SBD,M
Boys,99.79,7,Blas Guerro,San Angelo Central,93.44,204.12,115.67,192.78,512.56,Single-ply,SBD,M
Boys,99.79,8,Nate Newton,San Angelo Central,90.81,208.65,111.13,188.24,508.02,Single-ply,SBD,M
Boys,99.79,9,Bj Walker,Burnet,93.96,204.12,113.4,185.97,503.49,Single-ply,SBD,M
Boys,99.79,10,Jared Slack,Hamilton,92.17,206.38,102.06,192.78,501.22,Single-ply,SBD,M
Boys,99.79,11,Ryan Lewis,Brownwood,95.33,185.97,102.06,197.31,485.34,Single-ply,SBD,M
Boys,99.79,12,Brandon Dominguez,Ozona,94.8,204.12,97.52,181.44,483.08,Single-ply,SBD,M
Boys,99.79,13,Ethan Patlan,Sonora,93.44,179.17,117.93,183.7,480.81,Single-ply,SBD,M
Boys,99.79,14,Zach McCleskey,Burnet,97.13,174.63,102.06,190.51,467.2,Single-ply,SBD,M
Boys,99.79,15,Christian Vargas,Brady,93.26,161.03,72.57,165.56,399.16,Single-ply,SBD,M
Boys,99.79,16,Carlito Gonzales,Brownwood,97.07,154.22,74.84,147.42,376.48,Single-ply,SBD,M
Boys,109.77,17,Juan Mungia,Llano,100.02,131.54,95.25,147.42,374.21,Single-ply,SBD,M
Boys,109.77,18,Emilio Mendez,Ozona,100.02,149.69,79.38,142.88,371.95,Single-ply,SBD,M
Boys,99.79,DQ,John Mobley,Brownwood,98.16,158.76,104.33,,,Single-ply,SBD,M
Boys,109.77,1,Aaron Allen #2,San Angelo Lake View,108.86,294.84,142.88,301.64,739.36,Single-ply,SBD,M
Boys,109.77,2,David Cockrell,Lampasas,108.86,238.14,147.42,204.12,589.67,Single-ply,SBD,M
Boys,124.74,3,Andy Gamez,Lampasas,109.86,231.33,122.47,226.8,580.6,Single-ply,SBD,M
Boys,109.77,4,Vincent Compuzano,Marble Falls,106.32,208.65,131.54,238.14,578.33,Single-ply,SBD,M
Boys,109.77,5,Tres Perez,Ozona,108.86,238.14,129.27,206.38,573.79,Single-ply,SBD,M
Boys,109.77,6,Elijah Cross,Sonora,100.06,226.8,113.4,210.92,551.11,Single-ply,SBD,M
Boys,109.77,7,Stephen Dominguez,Sonora,107.86,208.65,138.35,204.12,551.11,Single-ply,SBD,M
Boys,109.77,8,Donald Ricketson,Llano,102.87,208.65,129.27,190.51,528.44,Single-ply,SBD,M
Boys,109.77,9,Taylor Hunt #1,San Angelo Central,100.24,208.65,120.2,197.31,526.17,Single-ply,SBD,M
Boys,109.77,10,Nick Wilkins,Brownwood,108.77,181.44,111.13,192.78,485.34,Single-ply,SBD,M
Boys,109.77,11,Harrel James,Christoval,106.41,183.7,97.52,185.97,467.2,Single-ply,SBD,M
Boys,109.77,12,Zak Taylor,Ozona,102.15,174.63,97.52,174.63,446.79,Single-ply,SBD,M
Boys,109.77,13,Kristian McCoury,San Saba,104.42,188.24,92.99,165.56,446.79,Single-ply,SBD,M
Boys,109.77,14,Michael Livingston,Brownwood,103.42,185.97,92.99,158.76,437.72,Single-ply,SBD,M
Boys,109.77,15,Ben Baier,Brady,102.97,158.76,72.57,154.22,385.55,Single-ply,SBD,M
Boys,109.77,16,Christopher Saldivar,Burnet,100.24,204.12,117.93,,322.05,Single-ply,SB,M
Boys,109.77,17,Dusty Parum,San Saba,104.78,174.63,120.2,,294.84,Single-ply,SB,M
Boys,109.77,DQ,Christian Saldivar,Burnet,100.74,195.04,120.2,,,Single-ply,SB,M
Boys,109.77,DQ,Adrian Hernandez #2,San Angelo Grape Creek,103.06,208.65,99.79,,,Single-ply,SB,M
Boys,109.77,DQ,Ethan Wagner,Hamilton,101.06,174.63,,,,Single-ply,SB,M
Boys,124.74,1,Riley Woodruff,Ballinger,115.67,328.85,151.95,260.82,741.62,Single-ply,SBD,M
Boys,124.74,2,Joseph Brooks,San Angelo Central,116.66,226.8,127.01,226.8,580.6,Single-ply,SBD,M
Boys,124.74,3,Colton Roark,Llano,116.66,161.03,92.99,154.22,408.23,Single-ply,SBD,M
Boys,124.74,DQ,Micheal Buya,Marble Falls,115.76,233.6,,,,Single-ply,SBD,M
Boys,124.74,DQ,James Nesom,Burnet,121.56,260.82,151.95,,,Single-ply,SBD,M
Boys,124.74,DQ,Ruben Magallan,San Angelo Lake View,115.94,195.04,111.13,,,Single-ply,SBD,M
Boys,124.74,DQ,Micheal Rodriguez,San Angelo Lake View,121.11,176.9,77.11,,,Single-ply,SBD,M
Boys,124.74+,1,Cullen Ruth,Brownwood,153.86,260.82,151.95,226.8,639.57,Single-ply,SBD,M
Boys,124.74+,2,Daniel Schlather,San Angelo Lake View,125.65,233.6,136.08,226.8,596.47,Single-ply,SBD,M
Boys,124.74+,3,Kevin Hobbs,Brownwood,136.08,249.48,113.4,229.06,591.94,Single-ply,SBD,M
Boys,124.74+,4,Jake Dibble,Lampasas,145.33,226.8,133.81,231.33,591.94,Single-ply,SBD,M
Boys,124.74+,5,Chase Fry,Marble Falls,144.7,226.8,140.61,190.51,557.92,Single-ply,SBD,M
Boys,124.74+,6,Weldon Edwards,Early,148.78,229.06,102.06,204.12,535.24,Single-ply,SBD,M
Boys,124.74+,7,Mark Hudson,San Angelo Lake View,153.31,208.65,108.86,215.46,532.97,Single-ply,SBD,M
Boys,124.74+,8,Travis Sparks,Marble Falls,135.17,195.04,104.33,181.44,480.81,Single-ply,SBD,M
Boys,124.74+,9,Bucky McDaniel,Early,128.82,190.51,102.06,170.1,462.66,Single-ply,SBD,M
Boys,124.74+,10,Ray Romero,Christoval,137.44,161.03,97.52,176.9,435.45,Single-ply,SBD,M
Boys,124.74+,11,Jordan Ledbetter,Llano,144.51,172.37,104.33,136.08,412.77,Single-ply,SBD,M
Boys,124.74+,12,Marc Zapata,Brady,144.24,156.49,97.52,149.69,403.7,Single-ply,SBD,M
