Division,WeightClassKg,Place,Name,Team,BodyweightKg,Best3SquatKg,Best3BenchKg,Best3DeadliftKg,TotalKg,Equipment,Event,Sex
Girls,44.23,1,Estefania Espino,Perryton,43.54,115.67,45.36,113.4,274.42,Single-ply,SBD,F
Girls,44.23,2,Miranda Fleming,Seagraves,43.09,83.91,43.09,90.72,217.72,Single-ply,SBD,F
Girls,44.23,3,Monica Hernandez-Olivo,Dumas,42.91,61.23,40.82,83.91,185.97,Single-ply,SBD,F
Girls,44.23,4,Joseline Salvador,Dimmitt,41.46,52.16,24.95,74.84,151.95,Single-ply,SBD,F
Girls,47.85,1,Rickie Castillo,Friona,47.17,113.4,45.36,99.79,258.55,Single-ply,SBD,F
Girls,47.85,DQ,Ginny Somphou,Dumas,47.81,,,,,Single-ply,SBD,F
Girls,51.94,1,Heav'nly Noriega,Tulia,51.17,140.61,70.31,127.01,337.93,Single-ply,SBD,F
Girls,51.94,2,Kalissa Branch,Seagraves,51.26,122.47,49.9,129.27,301.64,Single-ply,SBD,F
Girls,51.94,3,Kaylee Mueller,Seagraves,51.71,104.33,56.7,117.93,278.96,Single-ply,SBD,F
Girls,51.94,4,Yudith Aranda,Seagraves,49.8,108.86,58.97,108.86,276.69,Single-ply,SBD,F
Girls,51.94,5,Isabel Navarrete,Perryton,51.94,102.06,52.16,106.59,260.82,Single-ply,SBD,F
Girls,51.94,6,Carolina Holguin,Perryton,48.17,90.72,43.09,99.79,233.6,Single-ply,SBD,F
Girls,51.94,7,Jasmine Rodriguez,Dimmitt,50.08,74.84,31.75,79.38,185.97,Single-ply,SBD,F
Girls,51.94,8,Trinity Height,Tulia,49.9,45.36,20.41,54.43,120.2,Single-ply,SBD,F
Girls,51.94,DQ,Abby Mares,Dumas,51.8,111.13,58.97,,,Single-ply,SBD,F
Girls,56.02,1,Karisa Minjarez,Seagraves,56.02,122.47,56.7,127.01,306.17,Single-ply,SBD,F
Girls,56.02,2,Dalia Becerril,Perryton,55.97,106.59,68.04,117.93,292.57,Single-ply,SBD,F
Girls,56.02,3,Kk Minjarez,Seagraves,54.43,106.59,49.9,104.33,260.82,Single-ply,SBD,F
Girls,56.02,4,Denisia Garcia,Dumas,55.79,92.99,43.09,97.52,233.6,Single-ply,SBD,F
Girls,56.02,DQ,Emory Buchenau,Dumas,55.52,,,,,Single-ply,SBD,F
Girls,56.02,DQ,Francine Hernandez,Dumas,55.61,,,,,Single-ply,SBD,F
Girls,56.02,DQ,Audrie Strange,Floydada,54.98,,,,,Single-ply,SBD,F
Girls,56.02,DQ,Britney Olivas,Dumas,55.16,,,,,Single-ply,SBD,F
Girls,60.1,1,Kadence Esparza,Seagraves,59.78,127.01,63.5,131.54,322.05,Single-ply,SBD,F
Girls,60.1,2,Kessly Salinas,Friona,58.69,113.4,47.63,102.06,263.08,Single-ply,SBD,F
Girls,60.1,3,Melissa Ramos,Perryton,56.52,97.52,47.63,104.33,249.48,Single-ply,SBD,F
Girls,60.1,4,Cielo Esqueda,Dimmitt,59.87,108.86,45.36,90.72,244.94,Single-ply,SBD,F
Girls,60.1,5,Cassandra Chavira,Floydada,57.88,97.52,40.82,102.06,240.4,Single-ply,SBD,F
Girls,60.1,6,Monica Espinosa,Dimmitt,57.61,81.65,34.02,90.72,206.38,Single-ply,SBD,F
Girls,60.1,7,Magdalena Licerio,Friona,59.51,58.97,43.09,83.91,185.97,Single-ply,SBD,F
Girls,60.1,DQ,Destiny Cervantes-Saenz,Dumas,57.97,,,,,Single-ply,SBD,F
Girls,67.36,1,Leslie Morales,Perryton,65.5,145.15,77.11,151.95,374.21,Single-ply,SBD,F
Girls,67.36,2,Karissa Bueno,Seagraves,64.5,140.61,61.23,140.61,342.46,Single-ply,SBD,F
Girls,67.36,3,Minnel Leal,Dimmitt,61.14,113.4,49.9,129.27,292.57,Single-ply,SBD,F
Girls,67.36,4,Llaila Soto,Seagraves,66.41,113.4,54.43,122.47,290.3,Single-ply,SBD,F
Girls,67.36,5,Ariana Perez #1,Dimmitt,60.78,124.74,40.82,120.2,285.76,Single-ply,SBD,F
Girls,67.36,6,Htoo Shee,Dumas,60.42,106.59,45.36,113.4,265.35,Single-ply,SBD,F
Girls,67.36,7,Yanelika Sanchez,Borger,64.5,113.4,36.29,113.4,263.08,Single-ply,SBD,F
Girls,67.36,8,Ashleigh Broom,Dimmitt,63.41,95.25,47.63,95.25,238.14,Single-ply,SBD,F
Girls,67.36,9,Julissa Porras,Seagraves,65.41,92.99,40.82,99.79,233.6,Single-ply,SBD,F
Girls,67.36,10,Arriana Caballero,Dimmitt,62.41,90.72,40.82,95.25,226.8,Single-ply,SBD,F
Girls,67.36,11,Jolie Bell,Dimmitt,61.78,81.65,34.02,79.38,195.04,Single-ply,SBD,F
Girls,67.36,12,Elyana Medellin,Floydada,61.33,56.7,34.02,83.91,174.63,Single-ply,SBD,F
Girls,67.36,DQ,Alicia Monreal,Perryton,60.78,124.74,,,,Single-ply,SBD,F
Girls,67.36,DQ,Claudia Aguirre,Dumas,65.77,,,,,Single-ply,SBD,F
Girls,75.07,1,Alondra Tarango,Perryton,74.3,149.69,70.31,138.35,358.34,Single-ply,SBD,F
Girls,75.07,2,Rosemary Villanueva,Dumas,70.13,133.81,65.77,149.69,349.27,Single-ply,SBD,F
Girls,75.07,3,Adrianna Ortiz,Friona,72.71,127.01,72.57,113.4,312.98,Single-ply,SBD,F
Girls,75.07,4,Ali Rivera,Dimmitt,71.3,108.86,56.7,136.08,301.64,Single-ply,SBD,F
Girls,75.07,5,Vanessa Chavez,Friona,74.07,120.2,54.43,115.67,290.3,Single-ply,SBD,F
Girls,75.07,6,Maria Moreno,Dimmitt,71.21,97.52,43.09,136.08,276.69,Single-ply,SBD,F
Girls,75.07,7,Madison Garcia,Floydada,69.4,102.06,43.09,104.33,249.48,Single-ply,SBD,F
Girls,75.07,8,Kaitlyn Aguero,Dimmitt,70.31,95.25,40.82,106.59,242.67,Single-ply,SBD,F
Girls,75.07,9,Jo Vasquez,Dimmitt,69.67,99.79,40.82,90.72,231.33,Single-ply,SBD,F
Girls,75.07,10,Sayler Catlett,Tulia,67.59,70.31,40.82,90.72,201.85,Single-ply,SBD,F
Girls,75.07,DQ,Sadie Brookins,Tulia,69.13,102.06,,,,Single-ply,SBD,F
Girls,82.33,1,Lyssa Dunnam,Dumas,81.1,199.58,99.79,154.22,453.59,Single-ply,SBD,F
Girls,82.33,2,Abbey Evans,Tulia,80.29,181.44,79.38,149.69,410.5,Single-ply,SBD,F
Girls,82.33,3,Jacquelyn Olivas,Vega,79.02,136.08,72.57,122.47,331.12,Single-ply,SBD,F
Girls,82.33,4,Karla Nino,Seagraves,81.92,129.27,68.04,131.54,328.85,Single-ply,SBD,F
Girls,82.33,5,San Juanita Arellano,Floydada,77.29,138.35,61.23,127.01,326.59,Single-ply,SBD,F
Girls,82.33,6,Brandi Laue,Perryton,81.37,120.2,68.04,117.93,306.17,Single-ply,SBD,F
Girls,82.33,7,Zimrie Goen,Seagraves,77.29,117.93,63.5,122.47,303.91,Single-ply,SBD,F
Girls,82.33,8,Juanita Garcia,Friona,78.47,115.67,49.9,120.2,285.76,Single-ply,SBD,F
Girls,90.04,1,Natalie Hood,Borger,85.18,122.47,47.63,138.35,308.44,Single-ply,SBD,F
Girls,90.04,2,Savannah Castillo,Sudan,87.63,120.2,52.16,124.74,297.1,Single-ply,SBD,F
Girls,90.04,3,Yazmin Barron,Dimmitt,87.27,120.2,52.16,115.67,288.03,Single-ply,SBD,F
Girls,90.04,4,Torya Chico,Friona,89.45,124.74,43.09,113.4,281.23,Single-ply,SBD,F
Girls,90.04,5,Kaylea Britt,Floydada,86.86,90.72,45.36,95.25,231.33,Single-ply,SBD,F
Girls,90.04,6,Katy Rojas,Friona,89.09,72.57,27.22,106.59,206.38,Single-ply,SBD,F
Girls,90.04,DQ,Veronica Salinas,Tulia,86.73,127.01,40.82,,,Single-ply,SBD,F
Girls,100.02,1,Rubi Borjas,Perryton,93.53,142.88,65.77,131.54,340.19,Single-ply,SBD,F
Girls,100.02,2,Marilyn Martinez,Dimmitt,95.98,95.25,47.63,113.4,256.28,Single-ply,SBD,F
Girls,117.71,1,Crystal Gutierrez,Perryton,109.68,206.38,104.33,163.29,474,Single-ply,SBD,F
Girls,117.71,2,Maraya Corrales,Dimmitt,107.32,136.08,56.7,124.74,317.51,Single-ply,SBD,F
Girls,117.71,3,Clarissa Rivera #2,Dimmitt,102.6,113.4,49.9,120.2,283.5,Single-ply,SBD,F
Girls,117.71,4,Ebany Saucedo,Friona,105.1,99.79,49.9,124.74,274.42,Single-ply,SBD,F
Girls,117.71,5,Isabel Castaneda,Friona,108.41,95.25,34.02,113.4,242.67,Single-ply,SBD,F
Girls,117.71,6,Adriana Rodriguez,Hart,101.15,83.91,29.48,102.06,215.46,Single-ply,SBD,F
Girls,117.71+,1,Irma Rodriguez,Perryton,127.28,167.83,86.18,142.88,396.89,Single-ply,SBD,F
