Place,Name,BirthYear,BodyweightKg,Team,Best3SquatKg,Best3BenchKg,Best3DeadliftKg,TotalKg,Division,WeightClassKg,Equipment,Event,Sex
1,Veronika Opočenská,1999,56.5,SK ZLOBR Sedlčany,100,60,117.5,277.5,Sub-Juniors,57,Raw,SBD,F
2,Michaela Filová,1999,49.9,PWL Vision Nutrition,90,47.5,112.5,250,Sub-Juniors,52,Raw,SBD,F
3,Veronika Chrenková,1999,49.2,SK ZLOBR Sedlčany,90,42.5,100,232.5,Sub-Juniors,52,Raw,SBD,F
1,Kateřina Šupíková,1999,59.1,Arena Pavly Kladivové,85,52.5,135,272.5,Sub-Juniors,63,Raw,SBD,F
2,Klára Hýblová,1999,62.3,PWL Vision Nutrition,90,50,130.5,270.5,Sub-Juniors,63,Raw,SBD,F
3,Aneta Jelenová,1999,60.1,SKP Sport Děčín,95,55,120,270,Sub-Juniors,63,Raw,SBD,F
4,Lucie Žďárská,2001,61.9,TJ Lanškroun,92.5,45,112.5,250,Sub-Juniors,63,Raw,SBD,F
5,Tereza Rábová,1999,60.4,TJ Lanškroun,90,52.5,102.5,245,Sub-Juniors,63,Raw,SBD,F
6,Eva Waňková,2000,61.5,TJ Autobrzdy Jablonec n.N.,87.5,37.5,110,235,Sub-Juniors,63,Raw,SBD,F
1,Michaela Kanátová,2002,71.2,TJ Olympia Zlín,127.5,60,142.5,330,Sub-Juniors,72,Raw,SBD,F
2,Lucie Truhlářová,1999,63.5,PWL Vision Nutrition,102.5,55,110,267.5,Sub-Juniors,72,Raw,SBD,F
3,Angelína Charytonová,2002,69.5,TJ Kralupy,115,57.5,110,282.5,Sub-Juniors,72,Raw,SBD,F
4,Kristýna Nehybová,2000,79.5,TJ Lanškroun,90,65,130,285,Sub-Juniors,84,Raw,SBD,F
1,Jan Majerský,2001,59.4,STTJ Sokol Bílina,145,100,182.5,427.5,Sub-Juniors,66,Raw,SBD,M
2,Viliam Kováč,2000,56.5,TJ Autobrzdy Jablonec n.N.,125,82.5,166,373.5,Sub-Juniors,59,Raw,SBD,M
3,Tadeáš Serafin,2001,65.2,SKST Litvínov,125,90,170,385,Sub-Juniors,66,Raw,SBD,M
4,Pavel Kolář,2000,66,TJ Kralupy,130,95,155,380,Sub-Juniors,66,Raw,SBD,M
1,Martin Prokop,1999,70.5,SK ZLOBR Sedlčany,200.5,105,220,525.5,Sub-Juniors,74,Raw,SBD,M
2,Josef Klíma,1999,73.1,SK ZLOBR Sedlčany,185,100,210,495,Sub-Juniors,74,Raw,SBD,M
3,Filip Rybár,2001,72.6,TJ Přeštice,150,117.5,195,462.5,Sub-Juniors,74,Raw,SBD,M
4,Filip Fiala,2001,72.3,STTJ Sokol Bílina,155,115,190,460,Sub-Juniors,74,Raw,SBD,M
5,Marek Vávra,2001,71.6,KST Sporting Apis,172.5,97.5,185,455,Sub-Juniors,74,Raw,SBD,M
6,Pavel Prokop,2001,72.9,SK ZLOBR Sedlčany,155,92.5,205,452.5,Sub-Juniors,74,Raw,SBD,M
7,Martin Krýcha,2000,70.9,PWL Vision Nutrition,150,102.5,180,432.5,Sub-Juniors,74,Raw,SBD,M
8,Filip Jankov,1999,73.2,SK TER Praha,150,85,185,420,Sub-Juniors,74,Raw,SBD,M
9,Ondřej Vala,2003,72.6,TJ TZ Prosport Rakovník,130,87.5,160,377.5,Sub-Juniors,74,Raw,SBD,M
10,Yuriy Markovets,1999,73.6,TJ Sokol Vejprnice,117.5,82.5,157.5,357.5,Sub-Juniors,74,Raw,SBD,M
DQ,Ondřej Šperl,1999,73.9,TJ TZ Prosport Rakovník,170,107.5,,,Sub-Juniors,74,Raw,SBD,M
1,Karel Rada #2,2001,80.9,Fitness Staňkov,215,127.5,236,578.5,Sub-Juniors,83,Raw,SBD,M
2,Jan Kováč,2001,78.5,SK OLYMP FITNESS NOVÝ BOR,155,90,200,445,Sub-Juniors,83,Raw,SBD,M
3,Vojtěch Bula,2000,79.7,KST Sporting Apis,150,102.5,185,437.5,Sub-Juniors,83,Raw,SBD,M
4,Robin Knápek,2000,78.4,TJ Lanškroun,140,95,190,425,Sub-Juniors,83,Raw,SBD,M
1,Jiří Kymla,1999,89.8,SK ZLOBR Sedlčany,180,110,200,490,Sub-Juniors,93,Raw,SBD,M
2,Matyáš Vostrý,1999,91.4,TJ TZ Prosport Rakovník,130,117.5,160,407.5,Sub-Juniors,93,Raw,SBD,M
3,Zbyněk Rada,1999,88.9,Fitness Staňkov,127.5,75,160,362.5,Sub-Juniors,93,Raw,SBD,M
1,Václav Vlk,2000,97.4,Fitness Jiskra Bílina,207.5,137.5,240,585,Sub-Juniors,105,Raw,SBD,M
2,Tomáš Novák #1,1999,102.3,SK ZLOBR Sedlčany,200,112.5,190,502.5,Sub-Juniors,105,Raw,SBD,M
3,Vojtěch Lakomý,2001,96.3,TJ Autobrzdy Jablonec n.N.,170,100,202.5,472.5,Sub-Juniors,105,Raw,SBD,M
4,Daniel Kočandrle,2000,103.7,Fitness Staňkov,160,112.5,190,462.5,Sub-Juniors,105,Raw,SBD,M
1,Vilém Minařík,2000,119.6,TJ TZ Prosport Rakovník,175,100,200,475,Sub-Juniors,120,Raw,SBD,M
1,Ekaterina Antošová,1995,54.9,SK ZLOBR Sedlčany,95,73,102.5,270.5,Juniors,57,Raw,SBD,F
2,Blanka Pilátová,1996,52.8,Arena Pavly Kladivové,100,52.5,112.5,265,Juniors,57,Raw,SBD,F
1,Štěpánka Židová,1994,62.3,Powerlifting TJJM Chodov,130,77.5,155,362.5,Juniors,63,Raw,SBD,F
2,Lenka Wolfová,1995,62.2,Powerlifting School,115,52.5,125,292.5,Juniors,63,Raw,SBD,F
3,Kateřina Kunclová,1998,62.2,SK ZLOBR Sedlčany,105,57.5,122.5,285,Juniors,63,Raw,SBD,F
1,Kateřina Průšová,1994,70.4,KST Příbram,125,55,145,325,Juniors,72,Raw,SBD,F
2,Michaela Mašková,1994,67,PWL Vision Nutrition,107.5,50,120,277.5,Juniors,72,Raw,SBD,F
3,Johana Nováková,1995,71.1,Arena Pavly Kladivové,62.5,60,110,232.5,Juniors,72,Raw,SBD,F
4,Pavlína Lukášová,1996,71.1,Fitness Staňkov,75,35,105,215,Juniors,72,Raw,SBD,F
5,Tereza Havlová,1998,67.2,TJ Kralupy,60,25,80,165,Juniors,72,Raw,SBD,F
1,Martin Hladík,1994,71.7,Arena Pavly Kladivové,177.5,122.5,205,505,Juniors,74,Raw,SBD,M
2,Daniel Šmrha,1994,72.6,TJ Spartak Chodov,175,112.5,205,492.5,Juniors,74,Raw,SBD,M
3,Josef Pilský,1997,65.8,TJ Spartak Pelhřimov,150,110,195,455,Juniors,66,Raw,SBD,M
4,Václav Vostrácký,1997,73.9,Fitness Staňkov,180,107.5,202.5,490,Juniors,74,Raw,SBD,M
5,Štěpán Jindra,1997,73.1,SK ZLOBR Sedlčany,172.5,87.5,220,480,Juniors,74,Raw,SBD,M
6,Matěj Kmecko,1996,72.9,KST Sporting Apis,172.5,100,195,467.5,Juniors,74,Raw,SBD,M
7,Josef Pavlikovský,1996,69.9,TJ Spartak Chodov,145,105,175,425,Juniors,74,Raw,SBD,M
1,Dominik Šuchman,1995,81.9,KST Příbram,170,117.5,227.5,515,Juniors,83,Raw,SBD,M
2,Martin Maršík,1998,82.9,TJ Spartak Pelhřimov,150,102.5,210,462.5,Juniors,83,Raw,SBD,M
3,Tomáš Odstrčilík,1994,80,TJ Kralupy,135,95,192.5,422.5,Juniors,83,Raw,SBD,M
4,Pavel Kulka,1998,77.8,TJ Kralupy,140,110,170,420,Juniors,83,Raw,SBD,M
1,Evžen Sičevskij,1997,90,Powerlifting Jihlava,230,130,230,590,Juniors,93,Raw,SBD,M
2,Pavel Krejča,1995,91.3,TJ Spartak Chodov,230,155,205,590,Juniors,93,Raw,SBD,M
3,Vojtěch Anderle,1996,88,TJ Spartak Pelhřimov,200,130,240,570,Juniors,93,Raw,SBD,M
4,Tomáš Dočekal,1995,91.8,Arena Pavly Kladivové,192.5,125,230,547.5,Juniors,93,Raw,SBD,M
5,Pavel Eminger,1998,86.5,SK Totzi Klášterec n.O.,180,105,200,485,Juniors,93,Raw,SBD,M
6,Josef Krubner,1998,89.5,Arena Pavly Kladivové,180,120,185,485,Juniors,93,Raw,SBD,M
1,Jaroslav Němec,1998,101.3,SK ZLOBR Sedlčany,275,190.5,300,765.5,Juniors,105,Raw,SBD,M
2,Dominik Ryšavý,1998,94,TJ Lanškroun,222.5,135,235,592.5,Juniors,105,Raw,SBD,M
3,Michal Svatoš,1997,99,TJ Lanškroun,165,107.5,225,497.5,Juniors,105,Raw,SBD,M
1,Zbyněk Zuna,1998,117.5,Fitness Jiskra Bílina,202.5,125,220,547.5,Juniors,120,Raw,SBD,M
DQ,Ladislav Jelínek,1998,108.9,TJ Přeštice,200,,,,Juniors,120,Raw,SBD,M
DQ,Petr Klich,1995,113.4,TJ Kralupy,,,,,Juniors,120,Raw,SBD,M
