Division,WeightClassKg,Place,Name,Team,BodyweightKg,Best3SquatKg,Best3BenchKg,Best3DeadliftKg,TotalKg,Equipment,Event,Sex
Boys,51.71,1,Daniel Herrera,Navasota,50.12,104.33,70.31,113.4,288.03,Single-ply,SBD,M
Boys,55.79,2,Alex Holland,Conroe The Woodlands,51.89,95.25,58.97,131.54,285.76,Single-ply,SBD,M
Boys,51.71,3,Ryan Kerr,Conroe Woodlands College Park,51.53,102.06,65.77,106.59,274.42,Single-ply,SBD,M
Boys,51.71,4,Tristan McDaniel,Navasota,49.76,99.79,45.36,104.33,249.48,Single-ply,SBD,M
Boys,51.71,5,Dylan Mikus,Magnolia West,44.04,83.91,56.7,92.99,233.6,Single-ply,SBD,M
Boys,55.79,1,Cooper Houston,Montgomery,55.7,149.69,83.91,154.22,387.82,Single-ply,SBD,M
Boys,55.79,2,Grayson Danner,Conroe The Woodlands,52.98,138.35,88.45,142.88,369.68,Single-ply,SBD,M
Boys,59.87,3,Gavin Webster,Conroe The Woodlands,56.02,131.54,81.65,156.49,369.68,Single-ply,SBD,M
Boys,55.79,4,Cade Logan,Magnolia West,52.8,95.25,63.5,113.4,272.16,Single-ply,SBD,M
Boys,67.13,1,Grayson Brown,Conroe The Woodlands,60.1,197.31,102.06,181.44,480.81,Single-ply,SBD,M
Boys,59.87,2,Cody Tunning,Montgomery,57.74,147.42,90.72,147.42,385.55,Single-ply,SBD,M
Boys,67.13,3,Christian Tejada,Conroe,60.1,140.61,83.91,151.95,376.48,Single-ply,SBD,M
Boys,59.87,4,Joseph Herrera #2,Navasota,56.25,140.61,83.91,138.35,362.87,Single-ply,SBD,M
Boys,59.87,5,Dylan Jenkins,Montgomery,58.88,136.08,68.04,151.95,356.07,Single-ply,SBD,M
Boys,59.87,6,Corey Colon,Conroe Woodlands College Park,56.29,122.47,56.7,138.35,317.51,Single-ply,SBD,M
Boys,59.87,7,Sebastien Garcia,Conroe The Woodlands,58.42,111.13,52.16,111.13,274.42,Single-ply,SBD,M
Boys,67.13,1,Garrett Shantz,Montgomery,66,185.97,122.47,217.72,526.17,Single-ply,SBD,M
Boys,67.13,2,Kyle Stafford,Navasota,64.86,181.44,102.06,163.29,446.79,Single-ply,SBD,M
Boys,67.13,3,Lucas Erickson,Splendora,65.18,163.29,113.4,154.22,430.91,Single-ply,SBD,M
Boys,67.13,4,Zach Hawkins,Conroe The Woodlands,65.73,136.08,111.13,163.29,410.5,Single-ply,SBD,M
Boys,74.84,5,Francisco Vargas,Splendora,67.31,147.42,68.04,147.42,362.87,Single-ply,SBD,M
Boys,74.84,6,Josh Chaney,Conroe The Woodlands,67.27,133.81,77.11,145.15,356.07,Single-ply,SBD,M
Boys,67.13,7,Cole Berry,Montgomery,66.81,136.08,72.57,138.35,347,Single-ply,SBD,M
Boys,67.13,8,Darius Jones #3,Conroe The Woodlands,64.23,129.27,72.57,136.08,337.93,Single-ply,SBD,M
Boys,74.84,1,Austin Markham,Splendora,72.71,199.58,99.79,172.37,471.74,Single-ply,SBD,M
Boys,74.84,2,Noah Fletcher,Conroe Woodlands College Park,72.94,167.83,111.13,167.83,446.79,Single-ply,SBD,M
Boys,74.84,3,Eddison Carrington,Montgomery,72.85,163.29,124.74,149.69,437.72,Single-ply,SBD,M
Boys,74.84,4,Caleb Hall,Montgomery,69.4,163.29,102.06,165.56,430.91,Single-ply,SBD,M
Boys,74.84,5,Pedro Ott,Conroe Woodlands College Park,73.12,158.76,97.52,174.63,430.91,Single-ply,SBD,M
Boys,82.1,6,Kyle Brennan,Conroe The Woodlands,75.07,161.03,99.79,170.1,430.91,Single-ply,SBD,M
Boys,82.1,7,Josh Kiser,Conroe The Woodlands,74.93,149.69,88.45,183.7,421.84,Single-ply,SBD,M
Boys,74.84,8,Jacob Gallatin,Montgomery,71.71,158.76,86.18,158.76,403.7,Single-ply,SBD,M
Boys,74.84,9,Alevon Hollomon,Conroe,69.08,161.03,72.57,147.42,381.02,Single-ply,SBD,M
Boys,74.84,DQ,Brandon Champion,Montgomery,74.8,,,,,Single-ply,SBD,M
Boys,82.1,1,Colton Wetustki,Montgomery,75.3,226.8,111.13,204.12,542.04,Single-ply,SBD,M
Boys,82.1,2,Dave Harris,Navasota,79.33,190.51,99.79,188.24,478.54,Single-ply,SBD,M
Boys,82.1,3,Will Smith #3,Navasota,81.65,192.78,99.79,185.97,478.54,Single-ply,SBD,M
Boys,82.1,4,Tony Tapia,Conroe Woodlands College Park,78.29,181.44,111.13,170.1,462.66,Single-ply,SBD,M
Boys,82.1,5,Dustin Baranowski,Conroe The Woodlands,81.92,174.63,92.99,188.24,455.86,Single-ply,SBD,M
Boys,82.1,6,Lenard Abke,Navasota,82.1,190.51,97.52,158.76,446.79,Single-ply,SBD,M
Boys,82.1,7,Grant Farley,Conroe The Woodlands,81.19,156.49,102.06,156.49,415.04,Single-ply,SBD,M
Boys,82.1,8,Parker Coleman,Conroe The Woodlands,79.61,138.35,102.06,165.56,405.97,Single-ply,SBD,M
Boys,82.1,9,Mason Calhoun,Montgomery,80.88,136.08,90.72,149.69,376.48,Single-ply,SBD,M
Boys,82.1,10,Eugene Bizer,Conroe The Woodlands,79.61,133.81,81.65,151.95,367.41,Single-ply,SBD,M
Boys,89.81,1,Austin Cude,Navasota,83.42,217.72,149.69,219.99,587.4,Single-ply,SBD,M
Boys,89.81,2,Marquez Byrd,Navasota,88,217.72,111.13,226.8,555.65,Single-ply,SBD,M
Boys,89.81,3,Cody Mullins,Montgomery,86.23,204.12,142.88,190.51,537.51,Single-ply,SBD,M
Boys,89.81,4,Damiyon Harris,Conroe,87.04,208.65,117.93,192.78,519.36,Single-ply,SBD,M
Boys,89.81,5,Joseph Levantino,Montgomery,86.27,192.78,111.13,199.58,503.49,Single-ply,SBD,M
Boys,89.81,6,Roy Kelley,Conroe,89.58,176.9,106.59,208.65,492.15,Single-ply,SBD,M
Boys,89.81,7,Dillon Roberson,Conroe,83.46,197.31,106.59,167.83,471.74,Single-ply,SBD,M
Boys,89.81,8,Tucker Niesner,Montgomery,87,181.44,102.06,172.37,455.86,Single-ply,SBD,M
Boys,89.81,9,Zach Loane,Conroe The Woodlands,86.91,158.76,90.72,204.12,453.59,Single-ply,SBD,M
Boys,89.81,10,Jacob Wallace #2,Conroe The Woodlands,84.19,156.49,88.45,176.9,421.84,Single-ply,SBD,M
Boys,89.81,11,Bradley Martin,Montgomery,87.54,136.08,92.99,151.95,381.02,Single-ply,SBD,M
Boys,89.81,12,Mason Chance,Conroe The Woodlands,89.45,142.88,72.57,161.03,376.48,Single-ply,SBD,M
Boys,99.79,1,Mitchell Fountain,Conroe The Woodlands,99.25,333.39,204.12,317.51,855.02,Single-ply,SBD,M
Boys,99.79,2,Jason Paul,Conroe Woodlands College Park,91.99,272.16,145.15,217.72,635.03,Single-ply,SBD,M
Boys,99.79,3,Desmond Calhoun,Navasota,91.4,213.19,117.93,267.62,598.74,Single-ply,SBD,M
Boys,99.79,4,Ignacio Salinas,Conroe,97.25,231.33,136.08,206.38,573.79,Single-ply,SBD,M
Boys,99.79,5,David Rameriz,Navasota,91.4,226.8,117.93,185.97,530.7,Single-ply,SBD,M
Boys,99.79,6,Hector Garcia,Conroe Woodlands College Park,99.16,181.44,122.47,199.58,503.49,Single-ply,SBD,M
Boys,99.79,7,Rene Troche,Conroe The Woodlands,91.63,181.44,90.72,224.53,496.68,Single-ply,SBD,M
Boys,99.79,8,Mason Storrs,Magnolia West,98.11,199.58,115.67,167.83,483.08,Single-ply,SBD,M
Boys,99.79,9,Dustin Wolf,Conroe The Woodlands,93.53,163.29,115.67,176.9,455.86,Single-ply,SBD,M
Boys,99.79,10,Luke Kretschmer,Magnolia West,94.53,181.44,104.33,158.76,444.52,Single-ply,SBD,M
Boys,99.79,11,Andrew Smith #13,Conroe The Woodlands,93.39,158.76,104.33,170.1,433.18,Single-ply,SBD,M
Boys,99.79,12,Chris Martin,Splendora,97.52,140.61,92.99,172.37,405.97,Single-ply,SBD,M
Boys,99.79,13,Ben Doolan,Montgomery,94.53,136.08,92.99,174.63,403.7,Single-ply,SBD,M
Boys,99.79,DQ,Chaz Cavanaugh,Navasota,97.39,195.04,,,,Single-ply,SBD,M
Boys,99.79,DQ,Dorian Meyers,Navasota,97.98,190.51,113.4,,,Single-ply,SBD,M
Boys,109.77,1,Cody Brown #6,Conroe,100.38,235.87,122.47,217.72,576.06,Single-ply,SBD,M
Boys,109.77,2,Sam Grubbs #2,Conroe Woodlands College Park,109.77,229.06,124.74,208.65,562.45,Single-ply,SBD,M
Boys,109.77,3,Luis Espinola,Conroe Woodlands College Park,103.06,192.78,138.35,217.72,548.85,Single-ply,SBD,M
Boys,109.77,4,Cal Bauer,Navasota,104.83,199.58,140.61,204.12,544.31,Single-ply,SBD,M
Boys,109.77,5,Josh Miller,Montgomery,108.95,201.85,138.35,197.31,537.51,Single-ply,SBD,M
Boys,109.77,6,Jake Hollech,Magnolia West,109.5,192.78,138.35,188.24,519.36,Single-ply,SBD,M
Boys,109.77,7,Aaron Hopper,Conroe The Woodlands,106.96,199.58,117.93,199.58,517.1,Single-ply,SBD,M
Boys,109.77,8,Austin Ellis,Montgomery,105.32,181.44,113.4,204.12,498.95,Single-ply,SBD,M
Boys,109.77,9,Brendan Fox,Montgomery,109.5,181.44,129.27,163.29,474,Single-ply,SBD,M
Boys,124.74,1,Will Demmings,Conroe,123.38,306.17,154.22,229.06,689.46,Single-ply,SBD,M
Boys,124.74,2,Jose Guevara,Magnolia West,118.3,233.6,149.69,235.87,619.15,Single-ply,SBD,M
Boys,124.74,3,TJ Anderson,Conroe,121.7,249.48,124.74,204.12,578.33,Single-ply,SBD,M
Boys,124.74,4,Kevin Silva,Conroe The Woodlands,112.04,108.86,63.5,117.93,290.3,Single-ply,SBD,M
Boys,124.74,DQ,Andrew Velasco,Katy Mayde Creek,117.93,231.33,138.35,,,Single-ply,SBD,M
Boys,124.74+,1,Cory Ross,Navasota,126.1,233.6,167.83,213.19,614.62,Single-ply,SBD,M
Boys,124.74+,2,Brandon Jones #5,Montgomery,143.52,226.8,136.08,181.44,544.31,Single-ply,SBD,M
Boys,124.74+,3,Ed Cook,Montgomery,131.13,190.51,151.95,195.04,537.51,Single-ply,SBD,M
Boys,124.74+,4,Nathaniel Grant,Conroe Woodlands College Park,134.63,210.92,106.59,190.51,508.02,Single-ply,SBD,M
Boys,124.74+,5,Kevin Hurtado,Conroe Woodlands College Park,143.83,206.38,111.13,190.51,508.02,Single-ply,SBD,M
Boys,124.74+,6,Brock McCord,Conroe The Woodlands,138.07,181.44,83.91,176.9,442.25,Single-ply,SBD,M
