Division,WeightClassKg,Place,Name,Team,BodyweightKg,Best3SquatKg,Best3BenchKg,Best3DeadliftKg,TotalKg,Equipment,Event,Sex
Boys,55.79,1,Ray Landry,Del Valle,51.8,120.2,74.84,136.08,331.12,Single-ply,SBD,M
Boys,55.79,2,Jahvier Nivar,Killeen Ellison,51.89,113.4,70.31,136.08,319.78,Single-ply,SBD,M
Boys,51.71,3,Matt Pousson,Georgetown East View,49.17,70.31,38.56,77.11,185.97,Single-ply,SBD,M
Boys,55.79,1,JoRey Gonzales,Elgin,55.29,145.15,88.45,154.22,387.82,Single-ply,SBD,M
Boys,55.79,2,Jeremy Fejeran,Killeen Ellison,55.02,113.4,77.11,147.42,337.93,Single-ply,SBD,M
Boys,55.79,3,Cameron Przybylski,Belton,55.07,99.79,63.5,104.33,267.62,Single-ply,SBD,M
Boys,55.79,DQ,Marquis Wilson,Elgin,55.34,,,,,Single-ply,SBD,M
Boys,59.87,1,Miguel Valdez,Georgetown East View,59.69,158.76,88.45,174.63,421.84,Single-ply,SBD,M
Boys,59.87,2,Josh Bedolla,Elgin,59.06,142.88,92.99,161.03,396.89,Single-ply,SBD,M
Boys,59.87,3,Alvin Martinez,Del Valle,59.83,151.95,74.84,165.56,392.36,Single-ply,SBD,M
Boys,59.87,4,Louis Mena,Del Valle,59.83,124.74,88.45,158.76,371.95,Single-ply,SBD,M
Boys,67.13,5,Geryl McAllister,Killeen Ellison,59.92,113.4,88.45,133.81,335.66,Single-ply,SBD,M
Boys,74.84,1,Logan Hager,Georgetown,67.31,165.56,95.25,151.95,412.77,Single-ply,SBD,M
Boys,67.13,2,Braden Abercrombie,Del Valle,60.51,154.22,81.65,154.22,390.09,Single-ply,SBD,M
Boys,67.13,3,Demeatric Brandon,Belton,65.23,149.69,70.31,167.83,387.82,Single-ply,SBD,M
Boys,74.84,4,Soren San Miguel,Belton,67.22,138.35,90.72,158.76,387.82,Single-ply,SBD,M
Boys,67.13,5,Chris Breaux,Belton,64.73,122.47,90.72,158.76,371.95,Single-ply,SBD,M
Boys,67.13,6,Eduardo Lizardo,Del Valle,62.55,136.08,92.99,136.08,365.14,Single-ply,SBD,M
Boys,67.13,7,Cody Patterson,Bastrop Cedar Creek,65.18,117.93,81.65,136.08,335.66,Single-ply,SBD,M
Boys,67.13,8,Elias Smith,Belton,61.82,111.13,68.04,136.08,315.25,Single-ply,SBD,M
Boys,74.84,DQ,Javis Lavan,Belton,67.18,,,,,Single-ply,SBD,M
Boys,74.84,1,R J Nava,Georgetown,72.98,206.38,127.01,195.04,528.44,Single-ply,SBD,M
Boys,74.84,2,Harley Garcia,Florence,69.13,201.85,124.74,188.24,514.83,Single-ply,SBD,M
Boys,74.84,3,Jimmy Struble,Florence,74.8,204.12,95.25,195.04,494.42,Single-ply,SBD,M
Boys,74.84,4,Quavon Stevens,Del Valle,74.16,174.63,106.59,174.63,455.86,Single-ply,SBD,M
Boys,74.84,5,Joe Warehime,Belton,74.62,163.29,97.52,158.76,419.57,Single-ply,SBD,M
Boys,74.84,6,Austin Youngblood,Belton,72.12,149.69,90.72,170.1,410.5,Single-ply,SBD,M
Boys,74.84,7,Scott Thompson,Georgetown East View,71.21,151.95,88.45,167.83,408.23,Single-ply,SBD,M
Boys,74.84,8,Trent Foster,Belton,69.63,138.35,88.45,158.76,385.55,Single-ply,SBD,M
Boys,74.84,9,Austin Morgan,Georgetown,73.89,136.08,99.79,149.69,385.55,Single-ply,SBD,M
Boys,74.84,10,Daniel Anderdson,Elgin,73.03,136.08,86.18,154.22,376.48,Single-ply,SBD,M
Boys,74.84,11,Alex Quintero #2,Cedar Park Vista Ridge,71.03,124.74,102.06,140.61,367.41,Single-ply,SBD,M
Boys,74.84,12,Jeremy Inocencio,Del Valle,71.85,106.59,79.38,158.76,344.73,Single-ply,SBD,M
Boys,74.84,13,Brent Whalen,Georgetown,70.08,115.67,68.04,133.81,317.51,Single-ply,SBD,M
Boys,74.84,14,Kofi McDonald,Belton,67.45,108.86,65.77,127.01,301.64,Single-ply,SBD,M
Boys,74.84,15,Andrew Olson,Georgetown,69.9,97.52,70.31,111.13,278.96,Single-ply,SBD,M
Boys,74.84,DQ,Roberto Renteria,Elgin,70.85,129.27,,,,Single-ply,SBD,M
Boys,74.84,DQ,Nate Pintor,Georgetown East View,73.3,,,,,Single-ply,SBD,M
Boys,74.84,DQ,Adrian Contreras,Georgetown East View,69.17,136.08,,,,Single-ply,SBD,M
Boys,89.81,1,Simon Castillo,Bastrop Cedar Creek,82.33,192.78,140.61,181.44,514.83,Single-ply,SBD,M
Boys,82.1,2,Luis Sanchez,Killeen Ellison,80.78,179.17,129.27,183.7,492.15,Single-ply,SBD,M
Boys,82.1,3,Orlando Perez,Elgin,79.65,165.56,124.74,179.17,469.47,Single-ply,SBD,M
Boys,82.1,4,Nigel Deas,Killeen Ellison,79.97,174.63,108.86,176.9,460.4,Single-ply,SBD,M
Boys,82.1,5,Tye Hill,Georgetown,76.2,156.49,97.52,167.83,421.84,Single-ply,SBD,M
Boys,82.1,6,William Curry,Belton,77.88,140.61,104.33,147.42,392.36,Single-ply,SBD,M
Boys,89.81,7,Arturo Rodriguez,Georgetown East View,82.15,124.74,79.38,149.69,353.8,Single-ply,SBD,M
Boys,82.1,8,Garret Pluhar,Florence,75.52,136.08,77.11,136.08,349.27,Single-ply,SBD,M
Boys,82.1,9,Ben Purcell,Georgetown,77.61,136.08,65.77,142.88,344.73,Single-ply,SBD,M
Boys,82.1,10,Santiago Magana,Belton,80.33,156.49,,,156.49,Single-ply,S,M
Boys,89.81,11,Steven Alexander,Cedar Park Vista Ridge,82.28,156.49,,,156.49,Single-ply,S,M
Boys,82.1,DQ,Daniel Rangel,Del Valle,76.66,,,,,Single-ply,S,M
Boys,82.1,DQ,Caleb Cash,Georgetown East View,76.57,,,,,Single-ply,S,M
Boys,82.1,DQ,Justin Stautz,Thrall,79.2,,,,,Single-ply,S,M
Boys,89.81,1,Joseph Rodriguez,Bastrop Cedar Creek,86.09,181.44,117.93,201.85,501.22,Single-ply,SBD,M
Boys,89.81,2,Gage Parker,Georgetown,85.96,170.1,127.01,174.63,471.74,Single-ply,SBD,M
Boys,89.81,3,Robert Price #1,Belton,88.9,154.22,113.4,181.44,449.06,Single-ply,SBD,M
Boys,89.81,4,Levi Reeves,Georgetown East View,88.13,195.04,81.65,170.1,446.79,Single-ply,SBD,M
Boys,99.79,5,Ryan Johnson #23,Georgetown,89.99,165.56,106.59,165.56,437.72,Single-ply,SBD,M
Boys,89.81,6,Jake Martinez,Georgetown,84.87,154.22,111.13,138.35,403.7,Single-ply,SBD,M
Boys,89.81,7,Cody Garrett,Belton,88.13,136.08,90.72,154.22,381.02,Single-ply,SBD,M
Boys,89.81,8,Cory Weirerman,Florence,89.09,149.69,92.99,136.08,378.75,Single-ply,SBD,M
Boys,89.81,9,Derrick Juptner,Georgetown,84.69,151.95,86.18,136.08,374.21,Single-ply,SBD,M
Boys,89.81,10,Keland Moore,Georgetown,85.14,147.42,95.25,124.74,367.41,Single-ply,SBD,M
Boys,89.81,DQ,Zac Martsching,Thrall,89.22,,,,,Single-ply,SBD,M
Boys,89.81,DQ,Trevor Sellers,Killeen Ellison,86.95,,,,,Single-ply,SBD,M
Boys,89.81,DQ,Fabian Trujullo,Killeen Ellison,83.96,,,,,Single-ply,SBD,M
Boys,89.81,DQ,Micah Millican,Belton,89.13,,,,,Single-ply,SBD,M
Boys,89.81,DQ,Ryan Cox,Belton,89.81,,,,,Single-ply,SBD,M
Boys,99.79,1,David Vicars,Georgetown,91.76,190.51,127.01,213.19,530.7,Single-ply,SBD,M
Boys,99.79,2,Brandon Smith,Killeen Ellison,93.35,188.24,136.08,206.38,530.7,Single-ply,SBD,M
Boys,99.79,3,Fidel Estrada,Cedar Park Vista Ridge,99.79,201.85,122.47,167.83,492.15,Single-ply,SBD,M
Boys,99.79,4,Sebastian Rodriguez,Killeen Ellison,98.47,165.56,129.27,192.78,487.61,Single-ply,SBD,M
Boys,99.79,5,Marvin Harris,Cedar Park Vista Ridge,95.48,170.1,113.4,201.85,485.34,Single-ply,SBD,M
Boys,99.79,6,John Lara,Belton,99.16,181.44,120.2,172.37,474,Single-ply,SBD,M
Boys,99.79,7,Paul Crawford,Georgetown East View,97.48,172.37,127.01,158.76,458.13,Single-ply,SBD,M
Boys,99.79,8,Jake Blankenship,Georgetown,94.39,174.63,104.33,170.1,449.06,Single-ply,SBD,M
Boys,99.79,9,Cameron Horton,Georgetown,97.11,174.63,83.91,188.24,446.79,Single-ply,SBD,M
Boys,99.79,10,Brandon Gangloff,Belton,97.34,158.76,102.06,163.29,424.11,Single-ply,SBD,M
Boys,99.79,11,Colton Jarrard,Georgetown,97.25,174.63,104.33,124.74,403.7,Single-ply,SBD,M
Boys,99.79,12,Abel Ramirez,Bastrop Cedar Creek,93.98,154.22,86.18,147.42,387.82,Single-ply,SBD,M
Boys,99.79,13,Dameion Cavazos,Georgetown,94.62,131.54,72.57,111.13,315.25,Single-ply,SBD,M
Boys,99.79,DQ,Calvin Anderson,Georgetown,99.61,,,,,Single-ply,SBD,M
Boys,99.79,DQ,De'Ellison Aych,Elgin,92.12,,,,,Single-ply,SBD,M
Boys,99.79,DQ,Isreal Salinas,Belton,98.57,,,,,Single-ply,SBD,M
Boys,99.79,DQ,Cody Casewell,Belton,98.84,,,,,Single-ply,SBD,M
Boys,99.79,DQ,Donovan Mutin,Georgetown East View,99.79,,,,,Single-ply,SBD,M
Boys,109.77,1,Lorenzo Martinez,Georgetown,106.82,251.74,147.42,226.8,625.96,Single-ply,SBD,M
Boys,109.77,2,Hunter Gordon,Elgin,104.64,167.83,120.2,190.51,478.54,Single-ply,SBD,M
Boys,109.77,3,Aaron Johnson #15,Georgetown,108.32,204.12,104.33,151.95,460.4,Single-ply,SBD,M
Boys,109.77,4,Elijah Simpson,Elgin,105.51,154.22,90.72,192.78,437.72,Single-ply,SBD,M
Boys,109.77,DQ,Kaleb Hardy,Florence,101.38,,,,,Single-ply,SBD,M
Boys,124.74,1,Clayton Anderson,Elgin,110.5,,185.97,272.16,458.13,Single-ply,BD,M
Boys,124.74,2,Marin Biletic,Killeen Ellison,124.33,183.7,156.49,229.06,569.26,Single-ply,SBD,M
Boys,124.74,3,Justin Murphy,Belton,115.44,190.51,127.01,229.06,546.58,Single-ply,SBD,M
Boys,124.74,4,Jeremy Rodriguez #1,Bastrop Cedar Creek,115.62,208.65,127.01,199.58,535.24,Single-ply,SBD,M
Boys,124.74,5,Ray Castillo,Bastrop Cedar Creek,114.44,206.38,129.27,192.78,528.44,Single-ply,SBD,M
Boys,124.74,6,Cody Ullestad,Georgetown,111.18,201.85,122.47,192.78,517.1,Single-ply,SBD,M
Boys,124.74,7,Kade Clapper,Georgetown,124.1,163.29,97.52,147.42,408.23,Single-ply,SBD,M
Boys,124.74,8,Cody Shuffield,Georgetown,111.08,163.29,102.06,113.4,378.75,Single-ply,SBD,M
Boys,124.74,9,Zach Shackleford,Belton,111.27,142.88,90.72,145.15,378.75,Single-ply,SBD,M
Boys,124.74,DQ,Shakleford Priest,Belton,124.74,,,,,Single-ply,SBD,M
Boys,124.74,DQ,Josef Gaudiesus,Georgetown,115.98,,,,,Single-ply,SBD,M
Boys,124.74,DQ,Chastin Stautz,Thrall,117.89,161.03,,,,Single-ply,SBD,M
Boys,124.74+,1,Jacob Shanks,Elgin,156.63,249.48,163.29,265.35,678.12,Single-ply,SBD,M
Boys,124.74+,2,Thomas Stephens,Killeen Ellison,138.25,176.9,122.47,174.63,474,Single-ply,SBD,M
Boys,124.74+,3,Anthony Herrera,Del Valle,127.23,176.9,88.45,158.76,424.11,Single-ply,SBD,M
Boys,124.74+,DQ,Jose Reyes,Georgetown,132.86,,,,,Single-ply,SBD,M
Boys,124.74+,DQ,David Moss,Georgetown East View,136.08,,,,,Single-ply,SBD,M
