Division,WeightClassKg,Place,Name,Team,BodyweightKg,Best3SquatKg,Best3BenchKg,Best3DeadliftKg,TotalKg,Equipment,Event,Sex
Boys,51.71,1,Daniel Sandoval,Farmersville,50.89,124.74,68.04,136.08,328.85,Single-ply,SBD,M
Boys,55.79,2,Devan Harris,Quinlan Boles,51.89,104.33,61.23,129.27,294.84,Single-ply,SBD,M
Boys,51.71,3,Billy McMahon,Farmersville,49.44,102.06,54.43,102.06,258.55,Single-ply,SBD,M
Boys,51.71,4,Lloyd McGrath,Hawkins,44.54,63.5,34.02,88.45,185.97,Single-ply,SBD,M
Boys,51.71,5,Devin Chandler,Quitman,39.28,43.09,24.95,54.43,122.47,Single-ply,SBD,M
Boys,55.79,1,Jage Smith,Kaufman,55.52,161.03,70.31,185.97,417.3,Single-ply,SBD,M
Boys,55.79,2,Brady Rose,Mineola,55.16,145.15,65.77,158.76,369.68,Single-ply,SBD,M
Boys,55.79,3,Brandon Jones #8,Cumby,54.98,127.01,95.25,138.35,360.61,Single-ply,SBD,M
Boys,55.79,4,Edward Green,Daingerfield,52.98,124.74,61.23,163.29,349.27,Single-ply,SBD,M
Boys,55.79,5,Tim Jones,Cumby,55.34,133.81,65.77,133.81,333.39,Single-ply,SBD,M
Boys,55.79,6,James Hall,Emory Rains,54.88,115.67,70.31,117.93,303.91,Single-ply,SBD,M
Boys,55.79,7,Tyler Davis,Kaufman,54.7,124.74,58.97,117.93,301.64,Single-ply,SBD,M
Boys,59.87,8,Justin Talley,Quinlan Boles,55.97,90.72,63.5,122.47,276.69,Single-ply,SBD,M
Boys,55.79,9,Weston McClusky,Quinlan Ford,53.98,83.91,45.36,95.25,224.53,Single-ply,SBD,M
Boys,55.79,DQ,Bryan Lambert,Hawkins,55.79,127.01,79.38,,,Single-ply,SBD,M
Boys,59.87,1,Robert Landers,Royse City,59.51,172.37,99.79,199.58,471.74,Single-ply,SBD,M
Boys,67.13,2,Aj Durham,Kemp,59.96,181.44,113.4,170.1,464.93,Single-ply,SBD,M
Boys,59.87,3,Jose Rangel,Farmersville,58.15,142.88,104.33,172.37,419.57,Single-ply,SBD,M
Boys,59.87,4,Josh Palmer,Wolfe City,59.87,149.69,104.33,154.22,408.23,Single-ply,SBD,M
Boys,67.13,5,Juan Mendez,Emory Rains,60.1,149.69,90.72,151.95,392.36,Single-ply,SBD,M
Boys,59.87,6,Shawn Hooks,Daingerfield,57.97,149.69,90.72,149.69,390.09,Single-ply,SBD,M
Boys,59.87,7,Marcelino Montano,Wills Point,59.33,124.74,92.99,147.42,365.14,Single-ply,SBD,M
Boys,59.87,8,Josh Boone,Winnsboro,56.25,131.54,77.11,131.54,340.19,Single-ply,SBD,M
Boys,67.13,9,Winstin Everett,Daingerfield,60.06,131.54,65.77,133.81,331.12,Single-ply,SBD,M
Boys,59.87,10,Reece Walker,Cumby,58.79,122.47,65.77,136.08,324.32,Single-ply,SBD,M
Boys,59.87,11,Hunter Lee,Wolfe City,57.24,104.33,58.97,113.4,276.69,Single-ply,SBD,M
Boys,67.13,1,Terrance Walker,Winnsboro,67.13,226.8,124.74,190.51,542.04,Single-ply,SBD,M
Boys,67.13,2,Kyle Kiser,Emory Rains,65.32,161.03,117.93,192.78,471.74,Single-ply,SBD,M
Boys,67.13,3,James Silkey,Quinlan Ford,65.95,183.7,111.13,176.9,471.74,Single-ply,SBD,M
Boys,67.13,4,Colin Robinson #2,Kaufman,66.86,181.44,92.99,190.51,464.93,Single-ply,SBD,M
Boys,67.13,5,Alex Ramsey,Royse City,65.86,165.56,83.91,167.83,417.3,Single-ply,SBD,M
Boys,67.13,6,Dugane Winkle,Winnsboro,66.68,142.88,102.06,165.56,410.5,Single-ply,SBD,M
Boys,67.13,7,Jared Tumblason,Royse City,62.23,149.69,68.04,183.7,401.43,Single-ply,SBD,M
Boys,67.13,8,Chris Doyle,Royse City,62.69,136.08,92.99,161.03,390.09,Single-ply,SBD,M
Boys,67.13,9,Dakota McFail,Wolfe City,60.69,136.08,72.57,158.76,367.41,Single-ply,SBD,M
Boys,67.13,10,Elias Florentino,Mineola,66.5,142.88,86.18,138.35,367.41,Single-ply,SBD,M
Boys,67.13,11,Anthony Deville,Canton,63.14,136.08,79.38,140.61,356.07,Single-ply,SBD,M
Boys,67.13,12,Grayson Addudell,Canton,67.04,122.47,86.18,147.42,356.07,Single-ply,SBD,M
Boys,67.13,13,Chris Alphin,Wolfe City,66.95,124.74,77.11,136.08,337.93,Single-ply,SBD,M
Boys,67.13,14,Sam Edwards,Emory Rains,66.68,131.54,70.31,131.54,333.39,Single-ply,SBD,M
Boys,67.13,15,Kenny Hepner,Quinlan Boles,67.13,111.13,63.5,158.76,333.39,Single-ply,SBD,M
Boys,67.13,16,Hayden Hollon,Cumby,61.69,117.93,65.77,142.88,326.59,Single-ply,SBD,M
Boys,67.13,17,Wayne Wernicke,Kemp,65.59,108.86,74.84,136.08,319.78,Single-ply,SBD,M
Boys,67.13,18,Lance Phillips,Wolfe City,67.04,99.79,77.11,133.81,310.71,Single-ply,SBD,M
Boys,67.13,19,Brandon Lay,Kemp,60.42,102.06,63.5,117.93,283.5,Single-ply,SBD,M
Boys,67.13,20,Sjon Gardner,Farmersville,64.05,90.72,61.23,104.33,256.28,Single-ply,SBD,M
Boys,82.1,1,Johnny Kilgore,Kemp,75.02,222.26,140.61,215.46,578.33,Single-ply,SBD,M
Boys,82.1,2,Tyree Christian,Hawkins,74.93,183.7,127.01,192.78,503.49,Single-ply,SBD,M
Boys,74.84,2,Brandon Greene,Winnsboro,70.31,215.46,124.74,213.19,553.38,Single-ply,SBD,M
Boys,74.84,3,Justin Lawler,Kemp,72.03,204.12,124.74,224.53,553.38,Single-ply,SBD,M
Boys,74.84,4,Carson Turner,Quitman,73.3,199.58,117.93,208.65,526.17,Single-ply,SBD,M
Boys,74.84,5,Travis Bearden,Canton,73.03,190.51,115.67,185.97,492.15,Single-ply,SBD,M
Boys,74.84,6,Edwin Mims,Daingerfield,73.75,190.51,79.38,185.97,455.86,Single-ply,SBD,M
Boys,74.84,7,James Wright #1,Wills Point,71.76,174.63,97.52,167.83,439.98,Single-ply,SBD,M
Boys,74.84,8,Brett Hicks,Emory Rains,74.84,167.83,97.52,170.1,435.45,Single-ply,SBD,M
Boys,74.84,9,Levi Sherrill,Hawkins,73.48,158.76,90.72,183.7,433.18,Single-ply,SBD,M
Boys,82.1,10,Chris Hall,Hawkins,74.93,161.03,90.72,179.17,430.91,Single-ply,SBD,M
Boys,74.84,11,Arturo Banda,Quitman,73.12,161.03,113.4,154.22,428.64,Single-ply,SBD,M
Boys,74.84,12,Gannon Brown,Emory Rains,70.76,138.35,113.4,165.56,417.3,Single-ply,SBD,M
Boys,74.84,13,Jake Shinn,Quinlan Boles,70.67,163.29,77.11,170.1,410.5,Single-ply,SBD,M
Boys,74.84,14,Brian Reynolds #4,Farmersville,71.03,149.69,102.06,158.76,410.5,Single-ply,SBD,M
Boys,74.84,15,Michael Diaz,Emory Rains,72.57,147.42,88.45,163.29,399.16,Single-ply,SBD,M
Boys,74.84,16,Laxavier Batte,Kaufman,71.03,147.42,83.91,158.76,390.09,Single-ply,SBD,M
Boys,74.84,17,Daniel Broyles,Quinlan Boles,68.76,156.49,90.72,129.27,376.48,Single-ply,SBD,M
Boys,74.84,18,Manual Logo,Quinlan Ford,70.76,133.81,83.91,145.15,362.87,Single-ply,SBD,M
Boys,74.84,19,Odessa Sanchez,Emory Rains,74.39,111.13,72.57,151.95,335.66,Single-ply,SBD,M
Boys,74.84,20,Tanner McMillian,Royse City,71.58,117.93,83.91,122.47,324.32,Single-ply,SBD,M
Boys,74.84,21,Travis Tidwell,Quinlan Boles,71.94,113.4,77.11,131.54,322.05,Single-ply,SBD,M
Boys,74.84,22,Alan Workman,Quitman,73.12,92.99,61.23,106.59,260.82,Single-ply,SBD,M
Boys,74.84,DQ,Justin McLain,Quinlan Boles,74.39,,,,,Single-ply,SBD,M
Boys,89.81,1,Austin Musser,Mineola,82.19,199.58,120.2,195.04,514.83,Single-ply,SBD,M
Boys,82.1,3,Desmond Heath,Daingerfield,79.47,183.7,113.4,181.44,478.54,Single-ply,SBD,M
Boys,82.1,4,Bryce Sanford,Canton,79.11,192.78,102.06,181.44,476.27,Single-ply,SBD,M
Boys,82.1,5,Levi Wooten,Cumby,82.01,172.37,142.88,161.03,476.27,Single-ply,SBD,M
Boys,82.1,6,Kyle Crow,Quinlan Ford,79.83,181.44,79.38,181.44,442.25,Single-ply,SBD,M
Boys,82.1,7,Sam Tacket,Quitman,79.56,158.76,115.67,163.29,437.72,Single-ply,SBD,M
Boys,89.81,8,Joel Dunn,Royse City,82.28,174.63,97.52,165.56,437.72,Single-ply,SBD,M
Boys,82.1,9,Taylor Bachelder,Emory Rains,79.83,158.76,99.79,174.63,433.18,Single-ply,SBD,M
Boys,89.81,10,Sherman Birdsong,Quitman,82.28,154.22,111.13,165.56,430.91,Single-ply,SBD,M
Boys,82.1,11,Preston Nelson,Farmersville,78.83,149.69,95.25,176.9,421.84,Single-ply,SBD,M
Boys,82.1,12,Jose Juarez #3,Kaufman,82.01,149.69,92.99,167.83,410.5,Single-ply,SBD,M
Boys,82.1,13,Ben Dillon,Kemp,81.92,136.08,95.25,158.76,390.09,Single-ply,SBD,M
Boys,82.1,14,Josh Martinez,Quinlan Boles,78.47,127.01,72.57,181.44,381.02,Single-ply,SBD,M
Boys,82.1,15,Alex Rohret,Wolfe City,75.57,111.13,106.59,151.95,369.68,Single-ply,SBD,M
Boys,82.1,16,Christian Darter,Emory Rains,75.75,129.27,74.84,136.08,340.19,Single-ply,SBD,M
Boys,89.81,17,Mark Powell,Emory Rains,82.33,129.27,74.84,124.74,328.85,Single-ply,SBD,M
Boys,89.81,1,Matt Cortez,Royse City,89.36,258.55,138.35,231.33,628.23,Single-ply,SBD,M
Boys,89.81,2,Cole Patterson,Quinlan Ford,88.54,185.97,136.08,170.1,492.15,Single-ply,SBD,M
Boys,89.81,3,Jarrod Hague,Canton,89.09,181.44,108.86,176.9,467.2,Single-ply,SBD,M
Boys,89.81,4,Thomas Johnson,Royse City,83.28,183.7,106.59,174.63,464.93,Single-ply,SBD,M
Boys,89.81,5,Sam Rushing,Royse City,86.27,163.29,117.93,174.63,455.86,Single-ply,SBD,M
Boys,89.81,6,Cody Davis,Kaufman,86.18,174.63,104.33,174.63,453.59,Single-ply,SBD,M
Boys,89.81,7,Garrett Smith,Kaufman,86.64,174.63,111.13,161.03,446.79,Single-ply,SBD,M
Boys,89.81,8,Cody Doughetry,Emory Rains,86.64,176.9,92.99,154.22,424.11,Single-ply,SBD,M
Boys,89.81,9,Ryan Gearner,Winnsboro,83.91,142.88,102.06,170.1,415.04,Single-ply,SBD,M
Boys,89.81,10,Tim Davis,Quinlan Boles,84.46,136.08,77.11,158.76,371.95,Single-ply,SBD,M
Boys,89.81,11,Timothy McGrath,Hawkins,88.18,122.47,83.91,124.74,331.12,Single-ply,SBD,M
Boys,89.81,14,Juan de la Cruz,Kaufman,87.36,170.1,99.79,165.56,435.45,Single-ply,SBD,M
Boys,99.79,1,Casey Sergent,Quinlan Ford,95.89,265.35,142.88,249.48,657.71,Single-ply,SBD,M
Boys,99.79,2,Triston Leaks,Canton,90.9,226.8,149.69,244.94,621.42,Single-ply,SBD,M
Boys,99.79,3,Dillon Bates,Mineola,97.7,204.12,158.76,210.92,573.79,Single-ply,SBD,M
Boys,99.79,4,Ryan Johnson #17,Winnsboro,99.34,249.48,142.88,179.17,571.53,Single-ply,SBD,M
Boys,99.79,5,Truett Lewis,Wills Point,99.16,195.04,131.54,192.78,519.36,Single-ply,SBD,M
Boys,99.79,6,Jon Jennings,Kemp,91.63,204.12,124.74,185.97,514.83,Single-ply,SBD,M
Boys,99.79,7,Chris Tangaro,Canton,90.81,172.37,167.83,172.37,512.56,Single-ply,SBD,M
Boys,99.79,8,Brant Sims,Quinlan Boles,95.25,195.04,115.67,195.04,505.76,Single-ply,SBD,M
Boys,99.79,9,Nestor Santos,Mineola,92.26,176.9,129.27,183.7,489.88,Single-ply,SBD,M
Boys,99.79,10,Bryce Hale,Quinlan Ford,92.08,181.44,108.86,195.04,485.34,Single-ply,SBD,M
Boys,99.79,11,Darrion McQueen,Royse City,99.06,179.17,106.59,183.7,469.47,Single-ply,SBD,M
Boys,99.79,12,Kevin Davis #5,Kaufman,90.72,185.97,104.33,176.9,467.2,Single-ply,SBD,M
Boys,99.79,13,James Evans,Cumby,99.16,172.37,113.4,163.29,449.06,Single-ply,SBD,M
Boys,99.79,15,Coty McLemore,Winnsboro,92.99,138.35,95.25,140.61,374.21,Single-ply,SBD,M
Boys,99.79,16,Joseph Martin,Cumby,97.61,122.47,77.11,161.03,360.61,Single-ply,SBD,M
Boys,99.79,DQ,Cody Rowland,Wills Point,95.25,151.95,,,,Single-ply,SBD,M
Boys,99.79,DQ,Ryan Wetteland,Quinlan Boles,90.54,,,,,Single-ply,SBD,M
Boys,109.77,1,Damion Foster,Royse City,106.96,249.48,149.69,260.82,659.98,Single-ply,SBD,M
Boys,109.77,2,Anthony Ringenberg,Cumby,101.33,215.46,120.2,181.44,517.1,Single-ply,SBD,M
Boys,109.77,3,Anthony McGowern,Winnsboro,104.78,201.85,133.81,179.17,514.83,Single-ply,SBD,M
Boys,109.77,4,Ryan Smith,Wolfe City,106.32,183.7,136.08,195.04,514.83,Single-ply,SBD,M
Boys,109.77,5,Dakotta Cooksy,Quinlan Ford,100.24,190.51,108.86,185.97,485.34,Single-ply,SBD,M
Boys,109.77,6,David Allen,Quinlan Ford,105.69,174.63,95.25,188.24,458.13,Single-ply,SBD,M
Boys,109.77,7,Ryan Rainey,Wolfe City,109.13,149.69,104.33,190.51,444.52,Single-ply,SBD,M
Boys,109.77,8,Alksander Andric,Cumby,101.7,149.69,108.86,176.9,435.45,Single-ply,SBD,M
Boys,109.77,9,Glen Goode,Cumby,107.23,161.03,90.72,161.03,412.77,Single-ply,SBD,M
Boys,109.77,10,Dallas Millhauseh,Quinlan Ford,105.41,163.29,90.72,154.22,408.23,Single-ply,SBD,M
Boys,109.77,11,Jason Clayton,Quitman,106.87,43.09,65.77,90.72,199.58,Single-ply,SBD,M
Boys,109.77,DQ,Oswaldo Castenada,Royse City,106.78,149.69,,,,Single-ply,SBD,M
Boys,109.77,DQ,Steven Capko,Emory Rains,107.05,181.44,,,,Single-ply,SBD,M
Boys,109.77,DQ,Joseph Tucker,Wolfe City,101.51,136.08,90.72,,,Single-ply,SBD,M
Boys,124.74,1,Cody Parker,Kemp,116.94,260.82,170.1,215.46,646.37,Single-ply,SBD,M
Boys,124.74,2,Ben Jaeger,Emory Rains,115.21,238.14,158.76,238.14,635.03,Single-ply,SBD,M
Boys,124.74,3,James Forrest,Kemp,110.04,249.48,163.29,215.46,628.23,Single-ply,SBD,M
Boys,124.74,4,Jack Willeford,Farmersville,121.56,213.19,115.67,190.51,519.36,Single-ply,SBD,M
Boys,124.74,5,Josh Martines,Royse City,116.66,188.24,138.35,190.51,517.1,Single-ply,SBD,M
Boys,124.74,6,Joel Lopez,Farmersville,118.12,197.31,106.59,192.78,496.68,Single-ply,SBD,M
Boys,124.74,7,Victor Churn,Winnsboro,113.4,183.7,138.35,161.03,483.08,Single-ply,SBD,M
Boys,124.74,8,Joseph Stieferman,Quinlan Ford,121.47,181.44,117.93,158.76,458.13,Single-ply,SBD,M
Boys,124.74,9,Jack Adams,Winnsboro,114.76,174.63,115.67,149.69,439.98,Single-ply,SBD,M
Boys,124.74,10,Ty Collier,Canton,116.3,163.29,102.06,158.76,424.11,Single-ply,SBD,M
Boys,124.74+,1,Phaebian Wrenn,Kaufman,138.25,213.19,124.74,181.44,519.36,Single-ply,SBD,M
Boys,124.74+,2,Mat Conrad,Quinlan Ford,138.44,170.1,124.74,188.24,483.08,Single-ply,SBD,M
Boys,,NS,Patrick Brown,Quinlan Ford,,,,,,Single-ply,SBD,M
Boys,,NS,Lannon Pickle,Mineola,,,,,,Single-ply,SBD,M
Boys,,NS,Trevor Hudson,Mineola,,,,,,Single-ply,SBD,M
Boys,,NS,Ja'Quan Williams,Mineola,,,,,,Single-ply,SBD,M
Boys,,NS,Elijah Huntley,Royse City,,,,,,Single-ply,SBD,M
Boys,,NS,Roger Chavez,Royse City,,,,,,Single-ply,SBD,M
Boys,,NS,Jose Ramirez #1,Royse City,,,,,,Single-ply,SBD,M
Boys,,NS,Feliz Brito,Royse City,,,,,,Single-ply,SBD,M
Boys,,NS,Jarred Loftis,Royse City,,,,,,Single-ply,SBD,M
Boys,,NS,Luke Schell,Royse City,,,,,,Single-ply,SBD,M
Boys,,NS,Ernesto Franco,Royse City,,,,,,Single-ply,SBD,M
Boys,,NS,Collin Rodgers,Farmersville,,,,,,Single-ply,SBD,M
Boys,,NS,Adrian Cruz #2,Hawkins,,,,,,Single-ply,SBD,M
Boys,,NS,Dj Lackey,Cumby,,,,,,Single-ply,SBD,M
Boys,,NS,Deson Mims,Daingerfield,,,,,,Single-ply,SBD,M
Boys,,NS,Heath Rozell,Wolfe City,,,,,,Single-ply,SBD,M
